[
{"time": -1.000000, "throw": 74.850000},
{"time": -0.992000, "throw": 74.850000},
{"time": -0.984000, "throw": 74.850000},
{"time": -0.976000, "throw": 74.850000},
{"time": -0.968000, "throw": 74.850000},
{"time": -0.960000, "throw": 74.850000},
{"time": -0.952000, "throw": 74.850000},
{"time": -0.944000, "throw": 74.850000},
{"time": -0.936000, "throw": 74.850000},
{"time": -0.928000, "throw": 74.850000},
{"time": -0.920000, "throw": 74.850000},
{"time": -0.912000, "throw": 74.850000},
{"time": -0.904000, "throw": 74.850000},
{"time": -0.896000, "throw": 74.850000},
{"time": -0.888000, "throw": 74.850000},
{"time": -0.880000, "throw": 74.850000},
{"time": -0.872000, "throw": 74.850000},
{"time": -0.864000, "throw": 74.850000},
{"time": -0.856000, "throw": 74.850000},
{"time": -0.848000, "throw": 74.850000},
{"time": -0.840000, "throw": 74.850000},
{"time": -0.832000, "throw": 74.850000},
{"time": -0.824000, "throw": 74.850000},
{"time": -0.816000, "throw": 74.850000},
{"time": -0.808000, "throw": 74.850000},
{"time": -0.800000, "throw": 74.850000},
{"time": -0.792000, "throw": 74.850000},
{"time": -0.784000, "throw": 74.850000},
{"time": -0.776000, "throw": 74.850000},
{"time": -0.768000, "throw": 74.850000},
{"time": -0.760000, "throw": 74.850000},
{"time": -0.752000, "throw": 74.850000},
{"time": -0.744000, "throw": 74.850000},
{"time": -0.736000, "throw": 74.850000},
{"time": -0.728000, "throw": 74.850000},
{"time": -0.720000, "throw": 74.850000},
{"time": -0.712000, "throw": 74.850000},
{"time": -0.704000, "throw": 74.850000},
{"time": -0.696000, "throw": 74.850000},
{"time": -0.688000, "throw": 74.850000},
{"time": -0.680000, "throw": 74.850000},
{"time": -0.672000, "throw": 74.850000},
{"time": -0.664000, "throw": 74.850000},
{"time": -0.656000, "throw": 74.850000},
{"time": -0.648000, "throw": 74.850000},
{"time": -0.640000, "throw": 74.850000},
{"time": -0.632000, "throw": 74.850000},
{"time": -0.624000, "throw": 74.850000},
{"time": -0.616000, "throw": 74.850000},
{"time": -0.608000, "throw": 74.850000},
{"time": -0.600000, "throw": 74.850000},
{"time": -0.592000, "throw": 74.850000},
{"time": -0.584000, "throw": 74.850000},
{"time": -0.576000, "throw": 74.850000},
{"time": -0.568000, "throw": 74.850000},
{"time": -0.560000, "throw": 74.850000},
{"time": -0.552000, "throw": 74.850000},
{"time": -0.544000, "throw": 74.850000},
{"time": -0.536000, "throw": 74.850000},
{"time": -0.528000, "throw": 74.850000},
{"time": -0.520000, "throw": 74.850000},
{"time": -0.512000, "throw": 74.850000},
{"time": -0.504000, "throw": 74.850000},
{"time": -0.496000, "throw": 74.850000},
{"time": -0.488000, "throw": 74.850000},
{"time": -0.480000, "throw": 74.850000},
{"time": -0.472000, "throw": 74.850000},
{"time": -0.464000, "throw": 74.850000},
{"time": -0.456000, "throw": 74.850000},
{"time": -0.448000, "throw": 74.850000},
{"time": -0.440000, "throw": 74.850000},
{"time": -0.432000, "throw": 74.850000},
{"time": -0.424000, "throw": 74.850000},
{"time": -0.416000, "throw": 74.850000},
{"time": -0.408000, "throw": 74.850000},
{"time": -0.400000, "throw": 74.850000},
{"time": -0.392000, "throw": 74.850000},
{"time": -0.384000, "throw": 74.850000},
{"time": -0.376000, "throw": 74.850000},
{"time": -0.368000, "throw": 74.850000},
{"time": -0.360000, "throw": 74.850000},
{"time": -0.352000, "throw": 74.850000},
{"time": -0.344000, "throw": 74.850000},
{"time": -0.336000, "throw": 74.850000},
{"time": -0.328000, "throw": 74.850000},
{"time": -0.320000, "throw": 74.850000},
{"time": -0.312000, "throw": 74.850000},
{"time": -0.304000, "throw": 74.850000},
{"time": -0.296000, "throw": 74.850000},
{"time": -0.288000, "throw": 74.850000},
{"time": -0.280000, "throw": 74.850000},
{"time": -0.272000, "throw": 74.850000},
{"time": -0.264000, "throw": 74.850000},
{"time": -0.256000, "throw": 74.850000},
{"time": -0.248000, "throw": 74.850000},
{"time": -0.240000, "throw": 74.850000},
{"time": -0.232000, "throw": 74.850000},
{"time": -0.224000, "throw": 74.850000},
{"time": -0.216000, "throw": 74.850000},
{"time": -0.208000, "throw": 74.850000},
{"time": -0.200000, "throw": 74.850000},
{"time": -0.192000, "throw": 74.850000},
{"time": -0.184000, "throw": 74.850000},
{"time": -0.176000, "throw": 74.850000},
{"time": -0.168000, "throw": 74.850000},
{"time": -0.160000, "throw": 74.850000},
{"time": -0.152000, "throw": 74.850000},
{"time": -0.144000, "throw": 74.850000},
{"time": -0.136000, "throw": 74.850000},
{"time": -0.128000, "throw": 74.850000},
{"time": -0.120000, "throw": 74.850000},
{"time": -0.112000, "throw": 74.850000},
{"time": -0.104000, "throw": 74.850000},
{"time": -0.096000, "throw": 74.850000},
{"time": -0.088000, "throw": 74.850000},
{"time": -0.080000, "throw": 74.850000},
{"time": -0.072000, "throw": 74.850000},
{"time": -0.064000, "throw": 74.850000},
{"time": -0.056000, "throw": 74.850000},
{"time": -0.048000, "throw": 74.850000},
{"time": -0.040000, "throw": 74.850000},
{"time": -0.032000, "throw": 74.850000},
{"time": -0.024000, "throw": 74.850000},
{"time": -0.016000, "throw": 74.850000},
{"time": -0.008000, "throw": 74.850000},
{"time": 0.000000, "throw": 74.850000},
{"time": 0.008000, "throw": 74.850000},
{"time": 0.016000, "throw": 74.850000},
{"time": 0.024000, "throw": 74.850000},
{"time": 0.032000, "throw": 74.850000},
{"time": 0.040000, "throw": 74.850000},
{"time": 0.048000, "throw": 74.850000},
{"time": 0.056000, "throw": 74.850000},
{"time": 0.064000, "throw": 74.850000},
{"time": 0.072000, "throw": 74.850000},
{"time": 0.080000, "throw": 74.850000},
{"time": 0.088000, "throw": 74.850000},
{"time": 0.096000, "throw": 74.850000},
{"time": 0.104000, "throw": 74.850000},
{"time": 0.112000, "throw": 74.850000},
{"time": 0.120000, "throw": 74.850000},
{"time": 0.128000, "throw": 74.850000},
{"time": 0.136000, "throw": 74.850000},
{"time": 0.144000, "throw": 74.850000},
{"time": 0.152000, "throw": 74.850000},
{"time": 0.160000, "throw": 74.850000},
{"time": 0.168000, "throw": 74.850000},
{"time": 0.176000, "throw": 74.850000},
{"time": 0.184000, "throw": 74.850000},
{"time": 0.192000, "throw": 74.850000},
{"time": 0.200000, "throw": 74.850000},
{"time": 0.208000, "throw": 74.850000},
{"time": 0.216000, "throw": 74.850000},
{"time": 0.224000, "throw": 74.850000},
{"time": 0.232000, "throw": 74.850000},
{"time": 0.240000, "throw": 74.850000},
{"time": 0.248000, "throw": 74.850000},
{"time": 0.256000, "throw": 74.850000},
{"time": 0.264000, "throw": 74.850000},
{"time": 0.272000, "throw": 74.850000},
{"time": 0.280000, "throw": 74.850000},
{"time": 0.288000, "throw": 74.850000},
{"time": 0.296000, "throw": 74.850000},
{"time": 0.304000, "throw": 74.850000},
{"time": 0.312000, "throw": 74.850000},
{"time": 0.320000, "throw": 74.850000},
{"time": 0.328000, "throw": 74.850000},
{"time": 0.336000, "throw": 74.850000},
{"time": 0.344000, "throw": 74.850000},
{"time": 0.352000, "throw": 74.850000},
{"time": 0.360000, "throw": 74.850000},
{"time": 0.368000, "throw": 74.850000},
{"time": 0.376000, "throw": 74.850000},
{"time": 0.384000, "throw": 74.850000},
{"time": 0.392000, "throw": 74.850000},
{"time": 0.400000, "throw": 74.850000},
{"time": 0.408000, "throw": 74.850000},
{"time": 0.416000, "throw": 74.850000},
{"time": 0.424000, "throw": 74.850000},
{"time": 0.432000, "throw": 74.850000},
{"time": 0.440000, "throw": 74.850000},
{"time": 0.448000, "throw": 74.850000},
{"time": 0.456000, "throw": 74.850000},
{"time": 0.464000, "throw": 74.850000},
{"time": 0.472000, "throw": 74.850000},
{"time": 0.480000, "throw": 74.850000},
{"time": 0.488000, "throw": 74.850000},
{"time": 0.496000, "throw": 74.850000},
{"time": 0.504000, "throw": 74.850000},
{"time": 0.512000, "throw": 74.850000},
{"time": 0.520000, "throw": 74.850000},
{"time": 0.528000, "throw": 74.850000},
{"time": 0.536000, "throw": 74.850000},
{"time": 0.544000, "throw": 74.850000},
{"time": 0.552000, "throw": 74.850000},
{"time": 0.560000, "throw": 74.850000},
{"time": 0.568000, "throw": 74.850000},
{"time": 0.576000, "throw": 74.850000},
{"time": 0.584000, "throw": 74.850000},
{"time": 0.592000, "throw": 74.850000},
{"time": 0.600000, "throw": 74.850000},
{"time": 0.608000, "throw": 74.850000},
{"time": 0.616000, "throw": 74.850000},
{"time": 0.624000, "throw": 74.850000},
{"time": 0.632000, "throw": 74.850000},
{"time": 0.640000, "throw": 74.850000},
{"time": 0.648000, "throw": 74.850000},
{"time": 0.656000, "throw": 74.850000},
{"time": 0.664000, "throw": 74.850000},
{"time": 0.672000, "throw": 74.850000},
{"time": 0.680000, "throw": 74.850000},
{"time": 0.688000, "throw": 74.850000},
{"time": 0.696000, "throw": 74.850000},
{"time": 0.704000, "throw": 74.850000},
{"time": 0.712000, "throw": 74.850000},
{"time": 0.720000, "throw": 74.850000},
{"time": 0.728000, "throw": 74.850000},
{"time": 0.736000, "throw": 74.850000},
{"time": 0.744000, "throw": 74.850000},
{"time": 0.752000, "throw": 74.850000},
{"time": 0.760000, "throw": 74.850000},
{"time": 0.768000, "throw": 74.850000},
{"time": 0.776000, "throw": 74.850000},
{"time": 0.784000, "throw": 74.850000},
{"time": 0.792000, "throw": 74.850000},
{"time": 0.800000, "throw": 74.850000},
{"time": 0.808000, "throw": 74.850000},
{"time": 0.816000, "throw": 74.850000},
{"time": 0.824000, "throw": 74.850000},
{"time": 0.832000, "throw": 74.850000},
{"time": 0.840000, "throw": 74.850000},
{"time": 0.848000, "throw": 74.850000},
{"time": 0.856000, "throw": 74.850000},
{"time": 0.864000, "throw": 74.850000},
{"time": 0.872000, "throw": 74.850000},
{"time": 0.880000, "throw": 74.850000},
{"time": 0.888000, "throw": 74.850000},
{"time": 0.896000, "throw": 74.850000},
{"time": 0.904000, "throw": 74.850000},
{"time": 0.912000, "throw": 74.850000},
{"time": 0.920000, "throw": 74.850000},
{"time": 0.928000, "throw": 74.850000},
{"time": 0.936000, "throw": 74.850000},
{"time": 0.944000, "throw": 74.850000},
{"time": 0.952000, "throw": 74.850000},
{"time": 0.960000, "throw": 74.850000},
{"time": 0.968000, "throw": 74.850000},
{"time": 0.976000, "throw": 74.850000},
{"time": 0.984000, "throw": 74.850000},
{"time": 0.992000, "throw": 74.850000},
{"time": 1.000000, "throw": 74.850000},
{"time": 1.008000, "throw": 74.850000},
{"time": 1.016000, "throw": 74.850000},
{"time": 1.024000, "throw": 74.850000},
{"time": 1.032000, "throw": 74.850000},
{"time": 1.040000, "throw": 74.850000},
{"time": 1.048000, "throw": 74.850000},
{"time": 1.056000, "throw": 74.850000},
{"time": 1.064000, "throw": 74.850000},
{"time": 1.072000, "throw": 74.850000},
{"time": 1.080000, "throw": 74.850000},
{"time": 1.088000, "throw": 74.850000},
{"time": 1.096000, "throw": 74.850000},
{"time": 1.104000, "throw": 74.850000},
{"time": 1.112000, "throw": 74.850000},
{"time": 1.120000, "throw": 74.850000},
{"time": 1.128000, "throw": 74.850000},
{"time": 1.136000, "throw": 74.850000},
{"time": 1.144000, "throw": 74.850000},
{"time": 1.152000, "throw": 74.850000},
{"time": 1.160000, "throw": 74.850000},
{"time": 1.168000, "throw": 74.850000},
{"time": 1.176000, "throw": 74.850000},
{"time": 1.184000, "throw": 74.850000},
{"time": 1.192000, "throw": 74.850000},
{"time": 1.200000, "throw": 74.850000},
{"time": 1.208000, "throw": 74.850000},
{"time": 1.216000, "throw": 74.850000},
{"time": 1.224000, "throw": 74.850000},
{"time": 1.232000, "throw": 74.850000},
{"time": 1.240000, "throw": 74.850000},
{"time": 1.248000, "throw": 74.850000},
{"time": 1.256000, "throw": 74.850000},
{"time": 1.264000, "throw": 74.850000},
{"time": 1.272000, "throw": 74.850000},
{"time": 1.280000, "throw": 74.850000},
{"time": 1.288000, "throw": 74.850000},
{"time": 1.296000, "throw": 74.850000},
{"time": 1.304000, "throw": 74.850000},
{"time": 1.312000, "throw": 74.850000},
{"time": 1.320000, "throw": 74.850000},
{"time": 1.328000, "throw": 74.850000},
{"time": 1.336000, "throw": 74.850000},
{"time": 1.344000, "throw": 74.850000},
{"time": 1.352000, "throw": 74.850000},
{"time": 1.360000, "throw": 74.850000},
{"time": 1.368000, "throw": 74.850000},
{"time": 1.376000, "throw": 74.850000},
{"time": 1.384000, "throw": 74.850000},
{"time": 1.392000, "throw": 74.850000},
{"time": 1.400000, "throw": 74.850000},
{"time": 1.408000, "throw": 74.850000},
{"time": 1.416000, "throw": 74.850000},
{"time": 1.424000, "throw": 74.850000},
{"time": 1.432000, "throw": 74.850000},
{"time": 1.440000, "throw": 74.850000},
{"time": 1.448000, "throw": 74.850000},
{"time": 1.456000, "throw": 74.850000},
{"time": 1.464000, "throw": 74.850000},
{"time": 1.472000, "throw": 74.850000},
{"time": 1.480000, "throw": 74.850000},
{"time": 1.488000, "throw": 74.850000},
{"time": 1.496000, "throw": 74.850000},
{"time": 1.504000, "throw": 74.850000},
{"time": 1.512000, "throw": 74.850000},
{"time": 1.520000, "throw": 74.850000},
{"time": 1.528000, "throw": 74.850000},
{"time": 1.536000, "throw": 74.850000},
{"time": 1.544000, "throw": 74.850000},
{"time": 1.552000, "throw": 74.850000},
{"time": 1.560000, "throw": 74.850000},
{"time": 1.568000, "throw": 74.850000},
{"time": 1.576000, "throw": 74.850000},
{"time": 1.584000, "throw": 74.850000},
{"time": 1.592000, "throw": 74.850000},
{"time": 1.600000, "throw": 74.850000},
{"time": 1.608000, "throw": 74.850000},
{"time": 1.616000, "throw": 74.850000},
{"time": 1.624000, "throw": 74.850000},
{"time": 1.632000, "throw": 74.850000},
{"time": 1.640000, "throw": 74.850000},
{"time": 1.648000, "throw": 74.850000},
{"time": 1.656000, "throw": 74.850000},
{"time": 1.664000, "throw": 74.850000},
{"time": 1.672000, "throw": 74.850000},
{"time": 1.680000, "throw": 74.850000},
{"time": 1.688000, "throw": 74.850000},
{"time": 1.696000, "throw": 74.850000},
{"time": 1.704000, "throw": 74.850000},
{"time": 1.712000, "throw": 74.850000},
{"time": 1.720000, "throw": 74.850000},
{"time": 1.728000, "throw": 74.850000},
{"time": 1.736000, "throw": 74.850000},
{"time": 1.744000, "throw": 74.850000},
{"time": 1.752000, "throw": 74.850000},
{"time": 1.760000, "throw": 74.850000},
{"time": 1.768000, "throw": 74.850000},
{"time": 1.776000, "throw": 74.850000},
{"time": 1.784000, "throw": 74.850000},
{"time": 1.792000, "throw": 74.850000},
{"time": 1.800000, "throw": 74.850000},
{"time": 1.808000, "throw": 74.850000},
{"time": 1.816000, "throw": 74.850000},
{"time": 1.824000, "throw": 74.850000},
{"time": 1.832000, "throw": 74.850000},
{"time": 1.840000, "throw": 74.850000},
{"time": 1.848000, "throw": 74.850000},
{"time": 1.856000, "throw": 74.850000},
{"time": 1.864000, "throw": 74.850000},
{"time": 1.872000, "throw": 74.850000},
{"time": 1.880000, "throw": 74.850000},
{"time": 1.888000, "throw": 74.850000},
{"time": 1.896000, "throw": 74.850000},
{"time": 1.904000, "throw": 74.850000},
{"time": 1.912000, "throw": 74.850000},
{"time": 1.920000, "throw": 74.850000},
{"time": 1.928000, "throw": 74.850000},
{"time": 1.936000, "throw": 74.850000},
{"time": 1.944000, "throw": 74.850000},
{"time": 1.952000, "throw": 74.850000},
{"time": 1.960000, "throw": 74.850000},
{"time": 1.968000, "throw": 74.850000},
{"time": 1.976000, "throw": 74.850000},
{"time": 1.984000, "throw": 74.850000},
{"time": 1.992000, "throw": 74.850000},
{"time": 2.000000, "throw": 74.850000},
{"time": 2.008000, "throw": 74.850000},
{"time": 2.016000, "throw": 74.850000},
{"time": 2.024000, "throw": 74.850000},
{"time": 2.032000, "throw": 74.850000},
{"time": 2.040000, "throw": 74.850000},
{"time": 2.048000, "throw": 74.850000},
{"time": 2.056000, "throw": 74.850000},
{"time": 2.064000, "throw": 74.850000},
{"time": 2.072000, "throw": 74.850000},
{"time": 2.080000, "throw": 74.850000},
{"time": 2.088000, "throw": 74.850000},
{"time": 2.096000, "throw": 74.850000},
{"time": 2.104000, "throw": 74.850000},
{"time": 2.112000, "throw": 74.850000},
{"time": 2.120000, "throw": 74.850000},
{"time": 2.128000, "throw": 74.850000},
{"time": 2.136000, "throw": 74.850000},
{"time": 2.144000, "throw": 74.850000},
{"time": 2.152000, "throw": 74.850000},
{"time": 2.160000, "throw": 74.850000},
{"time": 2.168000, "throw": 74.850000},
{"time": 2.176000, "throw": 74.850000},
{"time": 2.184000, "throw": 74.850000},
{"time": 2.192000, "throw": 74.850000},
{"time": 2.200000, "throw": 74.850000},
{"time": 2.208000, "throw": 74.850000},
{"time": 2.216000, "throw": 74.850000},
{"time": 2.224000, "throw": 74.850000},
{"time": 2.232000, "throw": 74.850000},
{"time": 2.240000, "throw": 74.850000},
{"time": 2.248000, "throw": 74.850000},
{"time": 2.256000, "throw": 74.850000},
{"time": 2.264000, "throw": 74.850000},
{"time": 2.272000, "throw": 74.850000},
{"time": 2.280000, "throw": 74.850000},
{"time": 2.288000, "throw": 74.850000},
{"time": 2.296000, "throw": 74.850000},
{"time": 2.304000, "throw": 74.850000},
{"time": 2.312000, "throw": 74.850000},
{"time": 2.320000, "throw": 74.850000},
{"time": 2.328000, "throw": 74.850000},
{"time": 2.336000, "throw": 74.850000},
{"time": 2.344000, "throw": 74.850000},
{"time": 2.352000, "throw": 74.850000},
{"time": 2.360000, "throw": 74.850000},
{"time": 2.368000, "throw": 74.850000},
{"time": 2.376000, "throw": 74.850000},
{"time": 2.384000, "throw": 74.850000},
{"time": 2.392000, "throw": 74.850000},
{"time": 2.400000, "throw": 74.850000},
{"time": 2.408000, "throw": 74.850000},
{"time": 2.416000, "throw": 74.850000},
{"time": 2.424000, "throw": 74.850000},
{"time": 2.432000, "throw": 74.850000},
{"time": 2.440000, "throw": 74.850000},
{"time": 2.448000, "throw": 74.850000},
{"time": 2.456000, "throw": 74.850000},
{"time": 2.464000, "throw": 74.850000},
{"time": 2.472000, "throw": 74.850000},
{"time": 2.480000, "throw": 74.850000},
{"time": 2.488000, "throw": 74.850000},
{"time": 2.496000, "throw": 74.850000},
{"time": 2.504000, "throw": 74.850000},
{"time": 2.512000, "throw": 74.850000},
{"time": 2.520000, "throw": 74.850000},
{"time": 2.528000, "throw": 74.850000},
{"time": 2.536000, "throw": 74.850000},
{"time": 2.544000, "throw": 74.850000},
{"time": 2.552000, "throw": 74.850000},
{"time": 2.560000, "throw": 74.850000},
{"time": 2.568000, "throw": 74.850000},
{"time": 2.576000, "throw": 74.850000},
{"time": 2.584000, "throw": 74.850000},
{"time": 2.592000, "throw": 74.850000},
{"time": 2.600000, "throw": 74.850000},
{"time": 2.608000, "throw": 74.850000},
{"time": 2.616000, "throw": 74.850000},
{"time": 2.624000, "throw": 74.850000},
{"time": 2.632000, "throw": 74.850000},
{"time": 2.640000, "throw": 74.850000},
{"time": 2.648000, "throw": 74.850000},
{"time": 2.656000, "throw": 74.850000},
{"time": 2.664000, "throw": 74.850000},
{"time": 2.672000, "throw": 74.850000},
{"time": 2.680000, "throw": 74.850000},
{"time": 2.688000, "throw": 74.850000},
{"time": 2.696000, "throw": 74.850000},
{"time": 2.704000, "throw": 74.850000},
{"time": 2.712000, "throw": 74.850000},
{"time": 2.720000, "throw": 74.850000},
{"time": 2.728000, "throw": 74.850000},
{"time": 2.736000, "throw": 74.850000},
{"time": 2.744000, "throw": 74.850000},
{"time": 2.752000, "throw": 74.850000},
{"time": 2.760000, "throw": 74.850000},
{"time": 2.768000, "throw": 74.850000},
{"time": 2.776000, "throw": 74.850000},
{"time": 2.784000, "throw": 74.850000},
{"time": 2.792000, "throw": 74.850000},
{"time": 2.800000, "throw": 74.850000},
{"time": 2.808000, "throw": 74.850000},
{"time": 2.816000, "throw": 74.850000},
{"time": 2.824000, "throw": 74.850000},
{"time": 2.832000, "throw": 74.850000},
{"time": 2.840000, "throw": 74.850000},
{"time": 2.848000, "throw": 74.850000},
{"time": 2.856000, "throw": 74.850000},
{"time": 2.864000, "throw": 74.850000},
{"time": 2.872000, "throw": 74.850000},
{"time": 2.880000, "throw": 74.850000},
{"time": 2.888000, "throw": 74.850000},
{"time": 2.896000, "throw": 74.850000},
{"time": 2.904000, "throw": 74.850000},
{"time": 2.912000, "throw": 74.850000},
{"time": 2.920000, "throw": 74.850000},
{"time": 2.928000, "throw": 74.850000},
{"time": 2.936000, "throw": 74.850000},
{"time": 2.944000, "throw": 74.850000},
{"time": 2.952000, "throw": 74.850000},
{"time": 2.960000, "throw": 74.850000},
{"time": 2.968000, "throw": 74.850000},
{"time": 2.976000, "throw": 74.850000},
{"time": 2.984000, "throw": 74.850000},
{"time": 2.992000, "throw": 74.850000},
{"time": 3.000000, "throw": 74.850000},
{"time": 3.008000, "throw": 74.850000},
{"time": 3.016000, "throw": 74.850000},
{"time": 3.024000, "throw": 74.850000},
{"time": 3.032000, "throw": 74.850000},
{"time": 3.040000, "throw": 74.850000},
{"time": 3.048000, "throw": 74.850000},
{"time": 3.056000, "throw": 74.850000},
{"time": 3.064000, "throw": 74.850000},
{"time": 3.072000, "throw": 74.850000},
{"time": 3.080000, "throw": 74.850000},
{"time": 3.088000, "throw": 74.850000},
{"time": 3.096000, "throw": 74.850000},
{"time": 3.104000, "throw": 74.850000},
{"time": 3.112000, "throw": 74.850000},
{"time": 3.120000, "throw": 74.850000},
{"time": 3.128000, "throw": 74.850000},
{"time": 3.136000, "throw": 74.850000},
{"time": 3.144000, "throw": 74.850000},
{"time": 3.152000, "throw": 74.850000},
{"time": 3.160000, "throw": 74.850000},
{"time": 3.168000, "throw": 74.850000},
{"time": 3.176000, "throw": 74.850000},
{"time": 3.184000, "throw": 74.850000},
{"time": 3.192000, "throw": 74.850000},
{"time": 3.200000, "throw": 74.850000},
{"time": 3.208000, "throw": 74.850000},
{"time": 3.216000, "throw": 74.850000},
{"time": 3.224000, "throw": 74.850000},
{"time": 3.232000, "throw": 74.850000},
{"time": 3.240000, "throw": 74.850000},
{"time": 3.248000, "throw": 74.850000},
{"time": 3.256000, "throw": 74.850000},
{"time": 3.264000, "throw": 74.850000},
{"time": 3.272000, "throw": 74.850000},
{"time": 3.280000, "throw": 74.850000},
{"time": 3.288000, "throw": 74.850000},
{"time": 3.296000, "throw": 74.850000},
{"time": 3.304000, "throw": 74.850000},
{"time": 3.312000, "throw": 74.850000},
{"time": 3.320000, "throw": 74.850000},
{"time": 3.328000, "throw": 74.850000},
{"time": 3.336000, "throw": 74.850000},
{"time": 3.344000, "throw": 74.850000},
{"time": 3.352000, "throw": 74.850000},
{"time": 3.360000, "throw": 74.850000},
{"time": 3.368000, "throw": 74.850000},
{"time": 3.376000, "throw": 74.850000},
{"time": 3.384000, "throw": 74.850000},
{"time": 3.392000, "throw": 74.850000},
{"time": 3.400000, "throw": 74.850000},
{"time": 3.408000, "throw": 74.850000},
{"time": 3.416000, "throw": 74.850000},
{"time": 3.424000, "throw": 74.850000},
{"time": 3.432000, "throw": 74.850000},
{"time": 3.440000, "throw": 74.850000},
{"time": 3.448000, "throw": 74.850000},
{"time": 3.456000, "throw": 74.850000},
{"time": 3.464000, "throw": 74.850000},
{"time": 3.472000, "throw": 74.850000},
{"time": 3.480000, "throw": 74.850000},
{"time": 3.488000, "throw": 74.850000},
{"time": 3.496000, "throw": 74.850000},
{"time": 3.504000, "throw": 74.850000},
{"time": 3.512000, "throw": 74.850000},
{"time": 3.520000, "throw": 74.850000},
{"time": 3.528000, "throw": 74.850000},
{"time": 3.536000, "throw": 74.850000},
{"time": 3.544000, "throw": 74.850000},
{"time": 3.552000, "throw": 74.850000},
{"time": 3.560000, "throw": 74.850000},
{"time": 3.568000, "throw": 74.850000},
{"time": 3.576000, "throw": 74.850000},
{"time": 3.584000, "throw": 74.850000},
{"time": 3.592000, "throw": 74.850000},
{"time": 3.600000, "throw": 74.850000},
{"time": 3.608000, "throw": 74.850000},
{"time": 3.616000, "throw": 74.850000},
{"time": 3.624000, "throw": 74.850000},
{"time": 3.632000, "throw": 74.850000},
{"time": 3.640000, "throw": 74.850000},
{"time": 3.648000, "throw": 74.850000},
{"time": 3.656000, "throw": 74.850000},
{"time": 3.664000, "throw": 74.850000},
{"time": 3.672000, "throw": 74.850000},
{"time": 3.680000, "throw": 74.850000},
{"time": 3.688000, "throw": 74.850000},
{"time": 3.696000, "throw": 74.850000},
{"time": 3.704000, "throw": 74.850000},
{"time": 3.712000, "throw": 74.850000},
{"time": 3.720000, "throw": 74.850000},
{"time": 3.728000, "throw": 74.850000},
{"time": 3.736000, "throw": 74.850000},
{"time": 3.744000, "throw": 74.850000},
{"time": 3.752000, "throw": 74.850000},
{"time": 3.760000, "throw": 74.850000},
{"time": 3.768000, "throw": 74.850000},
{"time": 3.776000, "throw": 74.850000},
{"time": 3.784000, "throw": 74.850000},
{"time": 3.792000, "throw": 74.850000},
{"time": 3.800000, "throw": 74.850000},
{"time": 3.808000, "throw": 74.850000},
{"time": 3.816000, "throw": 74.850000},
{"time": 3.824000, "throw": 74.850000},
{"time": 3.832000, "throw": 74.850000},
{"time": 3.840000, "throw": 74.850000},
{"time": 3.848000, "throw": 74.850000},
{"time": 3.856000, "throw": 74.850000},
{"time": 3.864000, "throw": 74.850000},
{"time": 3.872000, "throw": 74.850000},
{"time": 3.880000, "throw": 74.850000},
{"time": 3.888000, "throw": 74.850000},
{"time": 3.896000, "throw": 74.850000},
{"time": 3.904000, "throw": 74.850000},
{"time": 3.912000, "throw": 74.850000},
{"time": 3.920000, "throw": 74.850000},
{"time": 3.928000, "throw": 74.850000},
{"time": 3.936000, "throw": 74.850000},
{"time": 3.944000, "throw": 74.850000},
{"time": 3.952000, "throw": 74.850000},
{"time": 3.960000, "throw": 74.850000},
{"time": 3.968000, "throw": 74.850000},
{"time": 3.976000, "throw": 74.850000},
{"time": 3.984000, "throw": 74.850000},
{"time": 3.992000, "throw": 74.850000},
{"time": 4.000000, "throw": 74.850000},
{"time": 4.008000, "throw": 74.850000},
{"time": 4.016000, "throw": 74.850000},
{"time": 4.024000, "throw": 74.850000},
{"time": 4.032000, "throw": 74.850000},
{"time": 4.040000, "throw": 74.850000},
{"time": 4.048000, "throw": 74.850000},
{"time": 4.056000, "throw": 74.850000},
{"time": 4.064000, "throw": 74.850000},
{"time": 4.072000, "throw": 74.850000},
{"time": 4.080000, "throw": 74.850000},
{"time": 4.088000, "throw": 74.850000},
{"time": 4.096000, "throw": 74.850000},
{"time": 4.104000, "throw": 74.850000},
{"time": 4.112000, "throw": 74.850000},
{"time": 4.120000, "throw": 74.850000},
{"time": 4.128000, "throw": 74.850000},
{"time": 4.136000, "throw": 74.850000},
{"time": 4.144000, "throw": 74.850000},
{"time": 4.152000, "throw": 74.850000},
{"time": 4.160000, "throw": 74.850000},
{"time": 4.168000, "throw": 74.850000},
{"time": 4.176000, "throw": 74.850000},
{"time": 4.184000, "throw": 74.850000},
{"time": 4.192000, "throw": 74.850000},
{"time": 4.200000, "throw": 74.850000},
{"time": 4.208000, "throw": 74.850000},
{"time": 4.216000, "throw": 74.850000},
{"time": 4.224000, "throw": 74.850000},
{"time": 4.232000, "throw": 74.850000},
{"time": 4.240000, "throw": 74.850000},
{"time": 4.248000, "throw": 74.850000},
{"time": 4.256000, "throw": 74.850000},
{"time": 4.264000, "throw": 74.850000},
{"time": 4.272000, "throw": 74.850000},
{"time": 4.280000, "throw": 74.850000},
{"time": 4.288000, "throw": 74.850000},
{"time": 4.296000, "throw": 74.850000},
{"time": 4.304000, "throw": 74.850000},
{"time": 4.312000, "throw": 74.850000},
{"time": 4.320000, "throw": 74.850000},
{"time": 4.328000, "throw": 74.850000},
{"time": 4.336000, "throw": 74.850000},
{"time": 4.344000, "throw": 74.850000},
{"time": 4.352000, "throw": 74.850000},
{"time": 4.360000, "throw": 74.850000},
{"time": 4.368000, "throw": 74.850000},
{"time": 4.376000, "throw": 74.850000},
{"time": 4.384000, "throw": 74.850000},
{"time": 4.392000, "throw": 74.850000},
{"time": 4.400000, "throw": 74.850000},
{"time": 4.408000, "throw": 74.850000},
{"time": 4.416000, "throw": 74.850000},
{"time": 4.424000, "throw": 74.850000},
{"time": 4.432000, "throw": 74.850000},
{"time": 4.440000, "throw": 74.850000},
{"time": 4.448000, "throw": 74.850000},
{"time": 4.456000, "throw": 74.850000},
{"time": 4.464000, "throw": 74.850000},
{"time": 4.472000, "throw": 74.850000},
{"time": 4.480000, "throw": 74.850000},
{"time": 4.488000, "throw": 74.850000},
{"time": 4.496000, "throw": 74.850000},
{"time": 4.504000, "throw": 74.850000},
{"time": 4.512000, "throw": 74.850000},
{"time": 4.520000, "throw": 74.850000},
{"time": 4.528000, "throw": 74.850000},
{"time": 4.536000, "throw": 74.850000},
{"time": 4.544000, "throw": 74.850000},
{"time": 4.552000, "throw": 74.850000},
{"time": 4.560000, "throw": 74.850000},
{"time": 4.568000, "throw": 74.850000},
{"time": 4.576000, "throw": 74.850000},
{"time": 4.584000, "throw": 74.850000},
{"time": 4.592000, "throw": 74.850000},
{"time": 4.600000, "throw": 74.850000},
{"time": 4.608000, "throw": 74.850000},
{"time": 4.616000, "throw": 74.850000},
{"time": 4.624000, "throw": 74.850000},
{"time": 4.632000, "throw": 74.850000},
{"time": 4.640000, "throw": 74.850000},
{"time": 4.648000, "throw": 74.850000},
{"time": 4.656000, "throw": 74.850000},
{"time": 4.664000, "throw": 74.850000},
{"time": 4.672000, "throw": 74.850000},
{"time": 4.680000, "throw": 74.850000},
{"time": 4.688000, "throw": 74.850000},
{"time": 4.696000, "throw": 74.850000},
{"time": 4.704000, "throw": 74.850000},
{"time": 4.712000, "throw": 74.850000},
{"time": 4.720000, "throw": 74.850000},
{"time": 4.728000, "throw": 74.850000},
{"time": 4.736000, "throw": 74.850000},
{"time": 4.744000, "throw": 74.850000},
{"time": 4.752000, "throw": 74.850000},
{"time": 4.760000, "throw": 74.850000},
{"time": 4.768000, "throw": 74.850000},
{"time": 4.776000, "throw": 74.850000},
{"time": 4.784000, "throw": 74.850000},
{"time": 4.792000, "throw": 74.850000},
{"time": 4.800000, "throw": 74.850000},
{"time": 4.808000, "throw": 74.850000},
{"time": 4.816000, "throw": 74.850000},
{"time": 4.824000, "throw": 74.850000},
{"time": 4.832000, "throw": 74.850000},
{"time": 4.840000, "throw": 74.850000},
{"time": 4.848000, "throw": 74.850000},
{"time": 4.856000, "throw": 74.850000},
{"time": 4.864000, "throw": 74.850000},
{"time": 4.872000, "throw": 74.850000},
{"time": 4.880000, "throw": 74.850000},
{"time": 4.888000, "throw": 74.850000},
{"time": 4.896000, "throw": 74.850000},
{"time": 4.904000, "throw": 74.850000},
{"time": 4.912000, "throw": 74.850000},
{"time": 4.920000, "throw": 74.850000},
{"time": 4.928000, "throw": 74.850000},
{"time": 4.936000, "throw": 74.850000},
{"time": 4.944000, "throw": 74.850000},
{"time": 4.952000, "throw": 74.850000},
{"time": 4.960000, "throw": 74.850000},
{"time": 4.968000, "throw": 74.850000},
{"time": 4.976000, "throw": 74.850000},
{"time": 4.984000, "throw": 74.850000},
{"time": 4.992000, "throw": 74.850000},
{"time": 5.000000, "throw": 74.850000},
{"time": 5.008000, "throw": 74.850000},
{"time": 5.016000, "throw": 74.850000},
{"time": 5.024000, "throw": 74.850000},
{"time": 5.032000, "throw": 74.850000},
{"time": 5.040000, "throw": 74.850000},
{"time": 5.048000, "throw": 74.850000},
{"time": 5.056000, "throw": 74.850000},
{"time": 5.064000, "throw": 74.850000},
{"time": 5.072000, "throw": 74.850000},
{"time": 5.080000, "throw": 74.850000},
{"time": 5.088000, "throw": 74.850000},
{"time": 5.096000, "throw": 74.850000},
{"time": 5.104000, "throw": 74.850000},
{"time": 5.112000, "throw": 74.850000},
{"time": 5.120000, "throw": 74.850000},
{"time": 5.128000, "throw": 74.850000},
{"time": 5.136000, "throw": 74.850000},
{"time": 5.144000, "throw": 74.850000},
{"time": 5.152000, "throw": 74.850000},
{"time": 5.160000, "throw": 74.850000},
{"time": 5.168000, "throw": 74.850000},
{"time": 5.176000, "throw": 74.850000},
{"time": 5.184000, "throw": 74.850000},
{"time": 5.192000, "throw": 74.850000},
{"time": 5.200000, "throw": 74.850000},
{"time": 5.208000, "throw": 74.850000},
{"time": 5.216000, "throw": 74.850000},
{"time": 5.224000, "throw": 74.850000},
{"time": 5.232000, "throw": 74.850000},
{"time": 5.240000, "throw": 74.850000},
{"time": 5.248000, "throw": 74.850000},
{"time": 5.256000, "throw": 74.850000},
{"time": 5.264000, "throw": 74.850000},
{"time": 5.272000, "throw": 74.850000},
{"time": 5.280000, "throw": 74.850000},
{"time": 5.288000, "throw": 74.850000},
{"time": 5.296000, "throw": 74.850000},
{"time": 5.304000, "throw": 74.850000},
{"time": 5.312000, "throw": 74.850000},
{"time": 5.320000, "throw": 74.850000},
{"time": 5.328000, "throw": 74.850000},
{"time": 5.336000, "throw": 74.850000},
{"time": 5.344000, "throw": 74.850000},
{"time": 5.352000, "throw": 74.850000},
{"time": 5.360000, "throw": 74.850000},
{"time": 5.368000, "throw": 74.850000},
{"time": 5.376000, "throw": 74.850000},
{"time": 5.384000, "throw": 74.850000},
{"time": 5.392000, "throw": 74.850000},
{"time": 5.400000, "throw": 74.850000},
{"time": 5.408000, "throw": 74.850000},
{"time": 5.416000, "throw": 74.850000},
{"time": 5.424000, "throw": 74.850000},
{"time": 5.432000, "throw": 74.850000},
{"time": 5.440000, "throw": 74.850000},
{"time": 5.448000, "throw": 74.850000},
{"time": 5.456000, "throw": 74.850000},
{"time": 5.464000, "throw": 74.850000},
{"time": 5.472000, "throw": 74.850000},
{"time": 5.480000, "throw": 74.850000},
{"time": 5.488000, "throw": 74.850000},
{"time": 5.496000, "throw": 74.850000},
{"time": 5.504000, "throw": 74.850000},
{"time": 5.512000, "throw": 74.850000},
{"time": 5.520000, "throw": 74.850000},
{"time": 5.528000, "throw": 74.850000},
{"time": 5.536000, "throw": 74.850000},
{"time": 5.544000, "throw": 74.850000},
{"time": 5.552000, "throw": 74.850000},
{"time": 5.560000, "throw": 74.850000},
{"time": 5.568000, "throw": 74.850000},
{"time": 5.576000, "throw": 74.850000},
{"time": 5.584000, "throw": 74.850000},
{"time": 5.592000, "throw": 74.850000},
{"time": 5.600000, "throw": 74.850000},
{"time": 5.608000, "throw": 74.850000},
{"time": 5.616000, "throw": 74.850000},
{"time": 5.624000, "throw": 74.850000},
{"time": 5.632000, "throw": 74.850000},
{"time": 5.640000, "throw": 74.850000},
{"time": 5.648000, "throw": 74.850000},
{"time": 5.656000, "throw": 74.850000},
{"time": 5.664000, "throw": 74.850000},
{"time": 5.672000, "throw": 74.850000},
{"time": 5.680000, "throw": 74.850000},
{"time": 5.688000, "throw": 74.850000},
{"time": 5.696000, "throw": 74.850000},
{"time": 5.704000, "throw": 74.850000},
{"time": 5.712000, "throw": 74.850000},
{"time": 5.720000, "throw": 74.850000},
{"time": 5.728000, "throw": 74.850000},
{"time": 5.736000, "throw": 74.850000},
{"time": 5.744000, "throw": 74.850000},
{"time": 5.752000, "throw": 74.850000},
{"time": 5.760000, "throw": 74.850000},
{"time": 5.768000, "throw": 74.850000},
{"time": 5.776000, "throw": 74.850000},
{"time": 5.784000, "throw": 74.850000},
{"time": 5.792000, "throw": 74.850000},
{"time": 5.800000, "throw": 74.850000},
{"time": 5.808000, "throw": 74.850000},
{"time": 5.816000, "throw": 74.850000},
{"time": 5.824000, "throw": 74.850000},
{"time": 5.832000, "throw": 74.850000},
{"time": 5.840000, "throw": 74.850000},
{"time": 5.848000, "throw": 74.850000},
{"time": 5.856000, "throw": 74.850000},
{"time": 5.864000, "throw": 74.850000},
{"time": 5.872000, "throw": 74.850000},
{"time": 5.880000, "throw": 74.850000},
{"time": 5.888000, "throw": 74.850000},
{"time": 5.896000, "throw": 74.850000},
{"time": 5.904000, "throw": 74.850000},
{"time": 5.912000, "throw": 74.850000},
{"time": 5.920000, "throw": 74.850000},
{"time": 5.928000, "throw": 74.850000},
{"time": 5.936000, "throw": 74.850000},
{"time": 5.944000, "throw": 74.850000},
{"time": 5.952000, "throw": 74.850000},
{"time": 5.960000, "throw": 74.850000},
{"time": 5.968000, "throw": 74.850000},
{"time": 5.976000, "throw": 74.850000},
{"time": 5.984000, "throw": 74.850000},
{"time": 5.992000, "throw": 74.850000},
{"time": 6.000000, "throw": 74.850000},
{"time": 6.008000, "throw": 74.850000},
{"time": 6.016000, "throw": 74.850000},
{"time": 6.024000, "throw": 74.850000},
{"time": 6.032000, "throw": 74.850000},
{"time": 6.040000, "throw": 74.850000},
{"time": 6.048000, "throw": 74.850000},
{"time": 6.056000, "throw": 74.850000},
{"time": 6.064000, "throw": 74.850000},
{"time": 6.072000, "throw": 74.850000},
{"time": 6.080000, "throw": 74.850000},
{"time": 6.088000, "throw": 74.850000},
{"time": 6.096000, "throw": 74.850000},
{"time": 6.104000, "throw": 74.850000},
{"time": 6.112000, "throw": 74.850000},
{"time": 6.120000, "throw": 74.850000},
{"time": 6.128000, "throw": 74.850000},
{"time": 6.136000, "throw": 74.850000},
{"time": 6.144000, "throw": 74.850000},
{"time": 6.152000, "throw": 74.850000},
{"time": 6.160000, "throw": 74.850000},
{"time": 6.168000, "throw": 74.850000},
{"time": 6.176000, "throw": 74.850000},
{"time": 6.184000, "throw": 74.850000},
{"time": 6.192000, "throw": 74.850000},
{"time": 6.200000, "throw": 74.850000},
{"time": 6.208000, "throw": 74.850000},
{"time": 6.216000, "throw": 74.850000},
{"time": 6.224000, "throw": 74.850000},
{"time": 6.232000, "throw": 74.850000},
{"time": 6.240000, "throw": 74.850000},
{"time": 6.248000, "throw": 74.850000},
{"time": 6.256000, "throw": 74.850000},
{"time": 6.264000, "throw": 74.850000},
{"time": 6.272000, "throw": 74.850000},
{"time": 6.280000, "throw": 74.850000},
{"time": 6.288000, "throw": 74.850000},
{"time": 6.296000, "throw": 74.850000},
{"time": 6.304000, "throw": 74.850000},
{"time": 6.312000, "throw": 74.850000},
{"time": 6.320000, "throw": 74.850000},
{"time": 6.328000, "throw": 74.850000},
{"time": 6.336000, "throw": 74.850000},
{"time": 6.344000, "throw": 74.850000},
{"time": 6.352000, "throw": 74.850000},
{"time": 6.360000, "throw": 74.850000},
{"time": 6.368000, "throw": 74.850000},
{"time": 6.376000, "throw": 74.850000},
{"time": 6.384000, "throw": 74.850000},
{"time": 6.392000, "throw": 74.850000},
{"time": 6.400000, "throw": 74.850000},
{"time": 6.408000, "throw": 74.850000},
{"time": 6.416000, "throw": 74.850000},
{"time": 6.424000, "throw": 74.850000},
{"time": 6.432000, "throw": 74.850000},
{"time": 6.440000, "throw": 74.850000},
{"time": 6.448000, "throw": 74.850000},
{"time": 6.456000, "throw": 74.850000},
{"time": 6.464000, "throw": 74.850000},
{"time": 6.472000, "throw": 74.850000},
{"time": 6.480000, "throw": 74.850000},
{"time": 6.488000, "throw": 74.850000},
{"time": 6.496000, "throw": 74.850000},
{"time": 6.504000, "throw": 74.850000},
{"time": 6.512000, "throw": 74.850000},
{"time": 6.520000, "throw": 74.850000},
{"time": 6.528000, "throw": 74.850000},
{"time": 6.536000, "throw": 74.850000},
{"time": 6.544000, "throw": 74.850000},
{"time": 6.552000, "throw": 74.850000},
{"time": 6.560000, "throw": 74.850000},
{"time": 6.568000, "throw": 74.850000},
{"time": 6.576000, "throw": 74.850000},
{"time": 6.584000, "throw": 74.850000},
{"time": 6.592000, "throw": 74.850000},
{"time": 6.600000, "throw": 74.850000},
{"time": 6.608000, "throw": 74.850000},
{"time": 6.616000, "throw": 74.850000},
{"time": 6.624000, "throw": 74.850000},
{"time": 6.632000, "throw": 74.850000},
{"time": 6.640000, "throw": 74.850000},
{"time": 6.648000, "throw": 74.850000},
{"time": 6.656000, "throw": 74.850000},
{"time": 6.664000, "throw": 74.850000},
{"time": 6.672000, "throw": 74.850000},
{"time": 6.680000, "throw": 74.850000},
{"time": 6.688000, "throw": 74.850000},
{"time": 6.696000, "throw": 74.850000},
{"time": 6.704000, "throw": 74.850000},
{"time": 6.712000, "throw": 74.850000},
{"time": 6.720000, "throw": 74.850000},
{"time": 6.728000, "throw": 74.850000},
{"time": 6.736000, "throw": 74.850000},
{"time": 6.744000, "throw": 74.850000},
{"time": 6.752000, "throw": 74.850000},
{"time": 6.760000, "throw": 74.850000},
{"time": 6.768000, "throw": 74.850000},
{"time": 6.776000, "throw": 74.850000},
{"time": 6.784000, "throw": 74.850000},
{"time": 6.792000, "throw": 74.850000},
{"time": 6.800000, "throw": 74.850000},
{"time": 6.808000, "throw": 74.850000},
{"time": 6.816000, "throw": 74.850000},
{"time": 6.824000, "throw": 74.850000},
{"time": 6.832000, "throw": 74.850000},
{"time": 6.840000, "throw": 74.850000},
{"time": 6.848000, "throw": 74.850000},
{"time": 6.856000, "throw": 74.850000},
{"time": 6.864000, "throw": 74.850000},
{"time": 6.872000, "throw": 74.850000},
{"time": 6.880000, "throw": 74.850000},
{"time": 6.888000, "throw": 74.850000},
{"time": 6.896000, "throw": 74.850000},
{"time": 6.904000, "throw": 74.850000},
{"time": 6.912000, "throw": 74.850000},
{"time": 6.920000, "throw": 74.850000},
{"time": 6.928000, "throw": 74.850000},
{"time": 6.936000, "throw": 74.850000},
{"time": 6.944000, "throw": 74.850000},
{"time": 6.952000, "throw": 74.850000},
{"time": 6.960000, "throw": 74.850000},
{"time": 6.968000, "throw": 74.850000},
{"time": 6.976000, "throw": 74.850000},
{"time": 6.984000, "throw": 74.850000},
{"time": 6.992000, "throw": 74.850000},
{"time": 7.000000, "throw": 74.850000},
{"time": 7.008000, "throw": 74.850000},
{"time": 7.016000, "throw": 74.850000},
{"time": 7.024000, "throw": 74.850000},
{"time": 7.032000, "throw": 74.850000},
{"time": 7.040000, "throw": 74.850000},
{"time": 7.048000, "throw": 74.850000},
{"time": 7.056000, "throw": 74.850000},
{"time": 7.064000, "throw": 74.850000},
{"time": 7.072000, "throw": 74.850000},
{"time": 7.080000, "throw": 74.850000},
{"time": 7.088000, "throw": 74.850000},
{"time": 7.096000, "throw": 74.850000},
{"time": 7.104000, "throw": 74.850000},
{"time": 7.112000, "throw": 74.850000},
{"time": 7.120000, "throw": 74.850000},
{"time": 7.128000, "throw": 74.850000},
{"time": 7.136000, "throw": 74.850000},
{"time": 7.144000, "throw": 74.850000},
{"time": 7.152000, "throw": 74.850000},
{"time": 7.160000, "throw": 74.850000},
{"time": 7.168000, "throw": 74.850000},
{"time": 7.176000, "throw": 74.850000},
{"time": 7.184000, "throw": 74.850000},
{"time": 7.192000, "throw": 74.850000},
{"time": 7.200000, "throw": 74.850000},
{"time": 7.208000, "throw": 74.850000},
{"time": 7.216000, "throw": 74.850000},
{"time": 7.224000, "throw": 74.850000},
{"time": 7.232000, "throw": 74.850000},
{"time": 7.240000, "throw": 74.850000},
{"time": 7.248000, "throw": 74.850000},
{"time": 7.256000, "throw": 74.850000},
{"time": 7.264000, "throw": 74.850000},
{"time": 7.272000, "throw": 74.850000},
{"time": 7.280000, "throw": 74.850000},
{"time": 7.288000, "throw": 74.850000},
{"time": 7.296000, "throw": 74.850000},
{"time": 7.304000, "throw": 74.850000},
{"time": 7.312000, "throw": 74.850000},
{"time": 7.320000, "throw": 74.850000},
{"time": 7.328000, "throw": 74.850000},
{"time": 7.336000, "throw": 74.850000},
{"time": 7.344000, "throw": 74.850000},
{"time": 7.352000, "throw": 74.850000},
{"time": 7.360000, "throw": 74.850000},
{"time": 7.368000, "throw": 74.850000},
{"time": 7.376000, "throw": 74.850000},
{"time": 7.384000, "throw": 74.850000},
{"time": 7.392000, "throw": 74.850000},
{"time": 7.400000, "throw": 74.850000},
{"time": 7.408000, "throw": 74.850000},
{"time": 7.416000, "throw": 74.850000},
{"time": 7.424000, "throw": 74.850000},
{"time": 7.432000, "throw": 74.850000},
{"time": 7.440000, "throw": 74.850000},
{"time": 7.448000, "throw": 74.850000},
{"time": 7.456000, "throw": 74.850000},
{"time": 7.464000, "throw": 74.850000},
{"time": 7.472000, "throw": 74.850000},
{"time": 7.480000, "throw": 74.850000},
{"time": 7.488000, "throw": 74.850000},
{"time": 7.496000, "throw": 74.850000},
{"time": 7.504000, "throw": 74.850000},
{"time": 7.512000, "throw": 74.850000},
{"time": 7.520000, "throw": 74.850000},
{"time": 7.528000, "throw": 74.850000},
{"time": 7.536000, "throw": 74.850000},
{"time": 7.544000, "throw": 74.850000},
{"time": 7.552000, "throw": 74.850000},
{"time": 7.560000, "throw": 74.850000},
{"time": 7.568000, "throw": 74.850000},
{"time": 7.576000, "throw": 74.850000},
{"time": 7.584000, "throw": 74.850000},
{"time": 7.592000, "throw": 74.850000},
{"time": 7.600000, "throw": 74.850000},
{"time": 7.608000, "throw": 74.850000},
{"time": 7.616000, "throw": 74.850000},
{"time": 7.624000, "throw": 74.850000},
{"time": 7.632000, "throw": 74.850000},
{"time": 7.640000, "throw": 74.850000},
{"time": 7.648000, "throw": 74.850000},
{"time": 7.656000, "throw": 74.850000},
{"time": 7.664000, "throw": 74.850000},
{"time": 7.672000, "throw": 74.850000},
{"time": 7.680000, "throw": 74.850000},
{"time": 7.688000, "throw": 74.850000},
{"time": 7.696000, "throw": 74.850000},
{"time": 7.704000, "throw": 74.850000},
{"time": 7.712000, "throw": 74.850000},
{"time": 7.720000, "throw": 74.850000},
{"time": 7.728000, "throw": 74.850000},
{"time": 7.736000, "throw": 74.850000},
{"time": 7.744000, "throw": 74.850000},
{"time": 7.752000, "throw": 74.850000},
{"time": 7.760000, "throw": 74.850000},
{"time": 7.768000, "throw": 74.850000},
{"time": 7.776000, "throw": 74.850000},
{"time": 7.784000, "throw": 74.850000},
{"time": 7.792000, "throw": 74.850000},
{"time": 7.800000, "throw": 74.850000},
{"time": 7.808000, "throw": 74.850000},
{"time": 7.816000, "throw": 74.850000},
{"time": 7.824000, "throw": 74.850000},
{"time": 7.832000, "throw": 74.850000},
{"time": 7.840000, "throw": 74.850000},
{"time": 7.848000, "throw": 74.850000},
{"time": 7.856000, "throw": 74.850000},
{"time": 7.864000, "throw": 74.850000},
{"time": 7.872000, "throw": 74.850000},
{"time": 7.880000, "throw": 74.850000},
{"time": 7.888000, "throw": 74.850000},
{"time": 7.896000, "throw": 74.850000},
{"time": 7.904000, "throw": 74.850000},
{"time": 7.912000, "throw": 74.850000},
{"time": 7.920000, "throw": 74.850000},
{"time": 7.928000, "throw": 74.850000},
{"time": 7.936000, "throw": 74.850000},
{"time": 7.944000, "throw": 74.850000},
{"time": 7.952000, "throw": 74.850000},
{"time": 7.960000, "throw": 74.850000},
{"time": 7.968000, "throw": 74.850000},
{"time": 7.976000, "throw": 74.850000},
{"time": 7.984000, "throw": 74.850000},
{"time": 7.992000, "throw": 74.850000},
{"time": 8.000000, "throw": 74.850000},
{"time": 8.008000, "throw": 74.850000},
{"time": 8.016000, "throw": 74.850000},
{"time": 8.024000, "throw": 74.850000},
{"time": 8.032000, "throw": 74.850000},
{"time": 8.040000, "throw": 74.850000},
{"time": 8.048000, "throw": 74.850000},
{"time": 8.056000, "throw": 74.850000},
{"time": 8.064000, "throw": 74.850000},
{"time": 8.072000, "throw": 74.850000},
{"time": 8.080000, "throw": 74.850000},
{"time": 8.088000, "throw": 74.850000},
{"time": 8.096000, "throw": 74.850000},
{"time": 8.104000, "throw": 74.850000},
{"time": 8.112000, "throw": 74.850000},
{"time": 8.120000, "throw": 74.850000},
{"time": 8.128000, "throw": 74.850000},
{"time": 8.136000, "throw": 74.850000},
{"time": 8.144000, "throw": 74.850000},
{"time": 8.152000, "throw": 74.850000},
{"time": 8.160000, "throw": 74.850000},
{"time": 8.168000, "throw": 74.850000},
{"time": 8.176000, "throw": 74.850000},
{"time": 8.184000, "throw": 74.850000},
{"time": 8.192000, "throw": 74.850000},
{"time": 8.200000, "throw": 74.850000},
{"time": 8.208000, "throw": 74.850000},
{"time": 8.216000, "throw": 74.850000},
{"time": 8.224000, "throw": 74.850000},
{"time": 8.232000, "throw": 74.850000},
{"time": 8.240000, "throw": 74.850000},
{"time": 8.248000, "throw": 74.850000},
{"time": 8.256000, "throw": 74.850000},
{"time": 8.264000, "throw": 74.850000},
{"time": 8.272000, "throw": 74.850000},
{"time": 8.280000, "throw": 74.850000},
{"time": 8.288000, "throw": 74.850000},
{"time": 8.296000, "throw": 74.850000},
{"time": 8.304000, "throw": 74.850000},
{"time": 8.312000, "throw": 74.850000},
{"time": 8.320000, "throw": 74.850000},
{"time": 8.328000, "throw": 74.850000},
{"time": 8.336000, "throw": 74.850000},
{"time": 8.344000, "throw": 74.850000},
{"time": 8.352000, "throw": 74.850000},
{"time": 8.360000, "throw": 74.850000},
{"time": 8.368000, "throw": 74.850000},
{"time": 8.376000, "throw": 74.850000},
{"time": 8.384000, "throw": 74.850000},
{"time": 8.392000, "throw": 74.850000},
{"time": 8.400000, "throw": 74.850000},
{"time": 8.408000, "throw": 74.850000},
{"time": 8.416000, "throw": 74.850000},
{"time": 8.424000, "throw": 74.850000},
{"time": 8.432000, "throw": 74.850000},
{"time": 8.440000, "throw": 74.850000},
{"time": 8.448000, "throw": 74.850000},
{"time": 8.456000, "throw": 74.850000},
{"time": 8.464000, "throw": 74.850000},
{"time": 8.472000, "throw": 74.850000},
{"time": 8.480000, "throw": 74.850000},
{"time": 8.488000, "throw": 74.850000},
{"time": 8.496000, "throw": 74.850000},
{"time": 8.504000, "throw": 74.850000},
{"time": 8.512000, "throw": 74.850000},
{"time": 8.520000, "throw": 74.850000},
{"time": 8.528000, "throw": 74.850000},
{"time": 8.536000, "throw": 74.850000},
{"time": 8.544000, "throw": 74.850000},
{"time": 8.552000, "throw": 74.850000},
{"time": 8.560000, "throw": 74.850000},
{"time": 8.568000, "throw": 74.850000},
{"time": 8.576000, "throw": 74.850000},
{"time": 8.584000, "throw": 74.850000},
{"time": 8.592000, "throw": 74.850000},
{"time": 8.600000, "throw": 74.850000},
{"time": 8.608000, "throw": 74.850000},
{"time": 8.616000, "throw": 74.850000},
{"time": 8.624000, "throw": 74.850000},
{"time": 8.632000, "throw": 74.850000},
{"time": 8.640000, "throw": 74.850000},
{"time": 8.648000, "throw": 74.850000},
{"time": 8.656000, "throw": 74.850000},
{"time": 8.664000, "throw": 74.850000},
{"time": 8.672000, "throw": 74.850000},
{"time": 8.680000, "throw": 74.850000},
{"time": 8.688000, "throw": 74.850000},
{"time": 8.696000, "throw": 74.850000},
{"time": 8.704000, "throw": 74.850000},
{"time": 8.712000, "throw": 74.850000},
{"time": 8.720000, "throw": 74.850000},
{"time": 8.728000, "throw": 74.850000},
{"time": 8.736000, "throw": 74.850000},
{"time": 8.744000, "throw": 74.850000},
{"time": 8.752000, "throw": 74.850000},
{"time": 8.760000, "throw": 74.850000},
{"time": 8.768000, "throw": 74.850000},
{"time": 8.776000, "throw": 74.850000},
{"time": 8.784000, "throw": 74.850000},
{"time": 8.792000, "throw": 74.850000},
{"time": 8.800000, "throw": 74.850000},
{"time": 8.808000, "throw": 74.850000},
{"time": 8.816000, "throw": 74.850000},
{"time": 8.824000, "throw": 74.850000},
{"time": 8.832000, "throw": 74.850000},
{"time": 8.840000, "throw": 74.850000},
{"time": 8.848000, "throw": 74.850000},
{"time": 8.856000, "throw": 74.850000},
{"time": 8.864000, "throw": 74.850000},
{"time": 8.872000, "throw": 74.850000},
{"time": 8.880000, "throw": 74.850000},
{"time": 8.888000, "throw": 74.850000},
{"time": 8.896000, "throw": 74.850000},
{"time": 8.904000, "throw": 74.850000},
{"time": 8.912000, "throw": 74.850000},
{"time": 8.920000, "throw": 74.850000},
{"time": 8.928000, "throw": 74.850000},
{"time": 8.936000, "throw": 74.850000},
{"time": 8.944000, "throw": 74.850000},
{"time": 8.952000, "throw": 74.850000},
{"time": 8.960000, "throw": 74.850000},
{"time": 8.968000, "throw": 74.850000},
{"time": 8.976000, "throw": 74.850000},
{"time": 8.984000, "throw": 74.850000},
{"time": 8.992000, "throw": 74.850000},
{"time": 9.000000, "throw": 74.850000},
{"time": 9.008000, "throw": 74.850000},
{"time": 9.016000, "throw": 74.850000},
{"time": 9.024000, "throw": 74.850000},
{"time": 9.032000, "throw": 74.850000},
{"time": 9.040000, "throw": 74.850000},
{"time": 9.048000, "throw": 74.850000},
{"time": 9.056000, "throw": 74.850000},
{"time": 9.064000, "throw": 74.850000},
{"time": 9.072000, "throw": 74.850000},
{"time": 9.080000, "throw": 74.850000},
{"time": 9.088000, "throw": 74.850000},
{"time": 9.096000, "throw": 74.850000},
{"time": 9.104000, "throw": 74.850000},
{"time": 9.112000, "throw": 74.850000},
{"time": 9.120000, "throw": 74.850000},
{"time": 9.128000, "throw": 74.850000},
{"time": 9.136000, "throw": 74.850000},
{"time": 9.144000, "throw": 74.850000},
{"time": 9.152000, "throw": 74.850000},
{"time": 9.160000, "throw": 74.850000},
{"time": 9.168000, "throw": 74.850000},
{"time": 9.176000, "throw": 74.850000},
{"time": 9.184000, "throw": 74.850000},
{"time": 9.192000, "throw": 74.850000},
{"time": 9.200000, "throw": 74.850000},
{"time": 9.208000, "throw": 74.850000},
{"time": 9.216000, "throw": 74.850000},
{"time": 9.224000, "throw": 74.850000},
{"time": 9.232000, "throw": 74.850000},
{"time": 9.240000, "throw": 74.850000},
{"time": 9.248000, "throw": 74.850000},
{"time": 9.256000, "throw": 74.850000},
{"time": 9.264000, "throw": 74.850000},
{"time": 9.272000, "throw": 74.850000},
{"time": 9.280000, "throw": 74.850000},
{"time": 9.288000, "throw": 74.850000},
{"time": 9.296000, "throw": 74.850000},
{"time": 9.304000, "throw": 74.850000},
{"time": 9.312000, "throw": 74.850000},
{"time": 9.320000, "throw": 74.850000},
{"time": 9.328000, "throw": 74.850000},
{"time": 9.336000, "throw": 74.850000},
{"time": 9.344000, "throw": 74.850000},
{"time": 9.352000, "throw": 74.850000},
{"time": 9.360000, "throw": 74.850000},
{"time": 9.368000, "throw": 74.850000},
{"time": 9.376000, "throw": 74.850000},
{"time": 9.384000, "throw": 74.850000},
{"time": 9.392000, "throw": 74.850000},
{"time": 9.400000, "throw": 74.850000},
{"time": 9.408000, "throw": 74.850000},
{"time": 9.416000, "throw": 74.850000},
{"time": 9.424000, "throw": 74.850000},
{"time": 9.432000, "throw": 74.850000},
{"time": 9.440000, "throw": 74.850000},
{"time": 9.448000, "throw": 74.850000},
{"time": 9.456000, "throw": 74.850000},
{"time": 9.464000, "throw": 74.850000},
{"time": 9.472000, "throw": 74.850000},
{"time": 9.480000, "throw": 74.850000},
{"time": 9.488000, "throw": 74.850000},
{"time": 9.496000, "throw": 74.850000},
{"time": 9.504000, "throw": 74.850000},
{"time": 9.512000, "throw": 74.850000},
{"time": 9.520000, "throw": 74.850000},
{"time": 9.528000, "throw": 74.850000},
{"time": 9.536000, "throw": 74.850000},
{"time": 9.544000, "throw": 74.850000},
{"time": 9.552000, "throw": 74.850000},
{"time": 9.560000, "throw": 74.850000},
{"time": 9.568000, "throw": 74.850000},
{"time": 9.576000, "throw": 74.850000},
{"time": 9.584000, "throw": 74.850000},
{"time": 9.592000, "throw": 74.850000},
{"time": 9.600000, "throw": 74.850000},
{"time": 9.608000, "throw": 74.850000},
{"time": 9.616000, "throw": 74.850000},
{"time": 9.624000, "throw": 74.850000},
{"time": 9.632000, "throw": 74.850000},
{"time": 9.640000, "throw": 74.850000},
{"time": 9.648000, "throw": 74.850000},
{"time": 9.656000, "throw": 74.850000},
{"time": 9.664000, "throw": 74.850000},
{"time": 9.672000, "throw": 74.850000},
{"time": 9.680000, "throw": 74.850000},
{"time": 9.688000, "throw": 74.850000},
{"time": 9.696000, "throw": 74.850000},
{"time": 9.704000, "throw": 74.850000},
{"time": 9.712000, "throw": 74.850000},
{"time": 9.720000, "throw": 74.850000},
{"time": 9.728000, "throw": 74.850000},
{"time": 9.736000, "throw": 74.850000},
{"time": 9.744000, "throw": 74.850000},
{"time": 9.752000, "throw": 74.850000},
{"time": 9.760000, "throw": 74.850000},
{"time": 9.768000, "throw": 74.850000},
{"time": 9.776000, "throw": 74.850000},
{"time": 9.784000, "throw": 74.850000},
{"time": 9.792000, "throw": 74.850000},
{"time": 9.800000, "throw": 74.850000},
{"time": 9.808000, "throw": 74.850000},
{"time": 9.816000, "throw": 74.850000},
{"time": 9.824000, "throw": 74.850000},
{"time": 9.832000, "throw": 74.850000},
{"time": 9.840000, "throw": 74.850000},
{"time": 9.848000, "throw": 74.850000},
{"time": 9.856000, "throw": 74.850000},
{"time": 9.864000, "throw": 74.850000},
{"time": 9.872000, "throw": 74.850000},
{"time": 9.880000, "throw": 74.850000},
{"time": 9.888000, "throw": 74.850000},
{"time": 9.896000, "throw": 74.850000},
{"time": 9.904000, "throw": 74.850000},
{"time": 9.912000, "throw": 74.850000},
{"time": 9.920000, "throw": 74.850000},
{"time": 9.928000, "throw": 74.850000},
{"time": 9.936000, "throw": 74.850000},
{"time": 9.944000, "throw": 74.850000},
{"time": 9.952000, "throw": 74.850000},
{"time": 9.960000, "throw": 74.850000},
{"time": 9.968000, "throw": 74.850000},
{"time": 9.976000, "throw": 74.850000},
{"time": 9.984000, "throw": 74.850000},
{"time": 9.992000, "throw": 74.850000},
{"time": 10.000000, "throw": 74.850000},
{"time": 10.008000, "throw": 74.850000},
{"time": 10.016000, "throw": 74.850000},
{"time": 10.024000, "throw": 74.850000},
{"time": 10.032000, "throw": 74.850000},
{"time": 10.040000, "throw": 74.850000},
{"time": 10.048000, "throw": 74.850000},
{"time": 10.056000, "throw": 74.850000},
{"time": 10.064000, "throw": 74.850000},
{"time": 10.072000, "throw": 74.850000},
{"time": 10.080000, "throw": 74.850000},
{"time": 10.088000, "throw": 74.850000},
{"time": 10.096000, "throw": 74.850000},
{"time": 10.104000, "throw": 74.850000},
{"time": 10.112000, "throw": 74.850000},
{"time": 10.120000, "throw": 74.850000},
{"time": 10.128000, "throw": 74.850000},
{"time": 10.136000, "throw": 74.850000},
{"time": 10.144000, "throw": 74.850000},
{"time": 10.152000, "throw": 74.850000},
{"time": 10.160000, "throw": 74.850000},
{"time": 10.168000, "throw": 74.850000},
{"time": 10.176000, "throw": 74.850000},
{"time": 10.184000, "throw": 74.850000},
{"time": 10.192000, "throw": 74.850000},
{"time": 10.200000, "throw": 74.850000},
{"time": 10.208000, "throw": 74.850000},
{"time": 10.216000, "throw": 74.850000},
{"time": 10.224000, "throw": 74.850000},
{"time": 10.232000, "throw": 74.850000},
{"time": 10.240000, "throw": 74.850000},
{"time": 10.248000, "throw": 74.850000},
{"time": 10.256000, "throw": 74.850000},
{"time": 10.264000, "throw": 74.850000},
{"time": 10.272000, "throw": 74.850000},
{"time": 10.280000, "throw": 74.850000},
{"time": 10.288000, "throw": 74.850000},
{"time": 10.296000, "throw": 74.850000},
{"time": 10.304000, "throw": 74.850000},
{"time": 10.312000, "throw": 74.850000},
{"time": 10.320000, "throw": 74.850000},
{"time": 10.328000, "throw": 74.850000},
{"time": 10.336000, "throw": 74.850000},
{"time": 10.344000, "throw": 74.850000},
{"time": 10.352000, "throw": 74.850000},
{"time": 10.360000, "throw": 74.850000},
{"time": 10.368000, "throw": 74.850000},
{"time": 10.376000, "throw": 74.850000},
{"time": 10.384000, "throw": 74.850000},
{"time": 10.392000, "throw": 74.850000},
{"time": 10.400000, "throw": 74.850000},
{"time": 10.408000, "throw": 74.850000},
{"time": 10.416000, "throw": 74.850000},
{"time": 10.424000, "throw": 74.850000},
{"time": 10.432000, "throw": 74.850000},
{"time": 10.440000, "throw": 74.850000},
{"time": 10.448000, "throw": 74.850000},
{"time": 10.456000, "throw": 74.850000},
{"time": 10.464000, "throw": 74.850000},
{"time": 10.472000, "throw": 74.850000},
{"time": 10.480000, "throw": 74.850000},
{"time": 10.488000, "throw": 74.850000},
{"time": 10.496000, "throw": 74.850000},
{"time": 10.504000, "throw": 74.850000},
{"time": 10.512000, "throw": 74.850000},
{"time": 10.520000, "throw": 74.850000},
{"time": 10.528000, "throw": 74.850000},
{"time": 10.536000, "throw": 74.850000},
{"time": 10.544000, "throw": 74.850000},
{"time": 10.552000, "throw": 74.850000},
{"time": 10.560000, "throw": 74.850000},
{"time": 10.568000, "throw": 74.850000},
{"time": 10.576000, "throw": 74.850000},
{"time": 10.584000, "throw": 74.850000},
{"time": 10.592000, "throw": 74.850000},
{"time": 10.600000, "throw": 74.850000},
{"time": 10.608000, "throw": 74.850000},
{"time": 10.616000, "throw": 74.850000},
{"time": 10.624000, "throw": 74.850000},
{"time": 10.632000, "throw": 74.850000},
{"time": 10.640000, "throw": 74.850000},
{"time": 10.648000, "throw": 74.850000},
{"time": 10.656000, "throw": 74.850000},
{"time": 10.664000, "throw": 74.850000},
{"time": 10.672000, "throw": 74.850000},
{"time": 10.680000, "throw": 74.850000},
{"time": 10.688000, "throw": 74.850000},
{"time": 10.696000, "throw": 74.850000},
{"time": 10.704000, "throw": 74.850000},
{"time": 10.712000, "throw": 74.850000},
{"time": 10.720000, "throw": 74.850000},
{"time": 10.728000, "throw": 74.850000},
{"time": 10.736000, "throw": 74.850000},
{"time": 10.744000, "throw": 74.850000},
{"time": 10.752000, "throw": 74.850000},
{"time": 10.760000, "throw": 74.850000},
{"time": 10.768000, "throw": 74.850000},
{"time": 10.776000, "throw": 74.850000},
{"time": 10.784000, "throw": 74.850000},
{"time": 10.792000, "throw": 74.850000},
{"time": 10.800000, "throw": 74.850000},
{"time": 10.808000, "throw": 74.850000},
{"time": 10.816000, "throw": 74.850000},
{"time": 10.824000, "throw": 74.850000},
{"time": 10.832000, "throw": 74.850000},
{"time": 10.840000, "throw": 74.850000},
{"time": 10.848000, "throw": 74.850000},
{"time": 10.856000, "throw": 74.850000},
{"time": 10.864000, "throw": 74.850000},
{"time": 10.872000, "throw": 74.850000},
{"time": 10.880000, "throw": 74.850000},
{"time": 10.888000, "throw": 74.850000},
{"time": 10.896000, "throw": 74.850000},
{"time": 10.904000, "throw": 74.850000},
{"time": 10.912000, "throw": 74.850000},
{"time": 10.920000, "throw": 74.850000},
{"time": 10.928000, "throw": 74.850000},
{"time": 10.936000, "throw": 74.850000},
{"time": 10.944000, "throw": 74.850000},
{"time": 10.952000, "throw": 74.850000},
{"time": 10.960000, "throw": 74.850000},
{"time": 10.968000, "throw": 74.850000},
{"time": 10.976000, "throw": 74.850000},
{"time": 10.984000, "throw": 74.850000},
{"time": 10.992000, "throw": 74.850000},
{"time": 11.000000, "throw": 74.850000},
{"time": 11.008000, "throw": 74.850000},
{"time": 11.016000, "throw": 74.850000},
{"time": 11.024000, "throw": 74.850000},
{"time": 11.032000, "throw": 74.850000},
{"time": 11.040000, "throw": 74.850000},
{"time": 11.048000, "throw": 74.850000},
{"time": 11.056000, "throw": 74.850000},
{"time": 11.064000, "throw": 74.850000},
{"time": 11.072000, "throw": 74.850000},
{"time": 11.080000, "throw": 74.850000},
{"time": 11.088000, "throw": 74.850000},
{"time": 11.096000, "throw": 74.850000},
{"time": 11.104000, "throw": 74.850000},
{"time": 11.112000, "throw": 74.850000},
{"time": 11.120000, "throw": 74.850000},
{"time": 11.128000, "throw": 74.850000},
{"time": 11.136000, "throw": 74.850000},
{"time": 11.144000, "throw": 74.850000},
{"time": 11.152000, "throw": 74.850000},
{"time": 11.160000, "throw": 74.850000},
{"time": 11.168000, "throw": 74.850000},
{"time": 11.176000, "throw": 74.850000},
{"time": 11.184000, "throw": 74.850000},
{"time": 11.192000, "throw": 74.850000},
{"time": 11.200000, "throw": 74.850000},
{"time": 11.208000, "throw": 74.850000},
{"time": 11.216000, "throw": 74.850000},
{"time": 11.224000, "throw": 74.850000},
{"time": 11.232000, "throw": 74.850000},
{"time": 11.240000, "throw": 74.850000},
{"time": 11.248000, "throw": 74.850000},
{"time": 11.256000, "throw": 74.850000},
{"time": 11.264000, "throw": 74.850000},
{"time": 11.272000, "throw": 74.850000},
{"time": 11.280000, "throw": 74.850000},
{"time": 11.288000, "throw": 74.850000},
{"time": 11.296000, "throw": 74.850000},
{"time": 11.304000, "throw": 74.850000},
{"time": 11.312000, "throw": 74.850000},
{"time": 11.320000, "throw": 74.850000},
{"time": 11.328000, "throw": 74.850000},
{"time": 11.336000, "throw": 74.850000},
{"time": 11.344000, "throw": 74.850000},
{"time": 11.352000, "throw": 74.850000},
{"time": 11.360000, "throw": 74.850000},
{"time": 11.368000, "throw": 74.850000},
{"time": 11.376000, "throw": 74.850000},
{"time": 11.384000, "throw": 74.850000},
{"time": 11.392000, "throw": 74.850000},
{"time": 11.400000, "throw": 74.850000},
{"time": 11.408000, "throw": 74.850000},
{"time": 11.416000, "throw": 74.850000},
{"time": 11.424000, "throw": 74.850000},
{"time": 11.432000, "throw": 74.850000},
{"time": 11.440000, "throw": 74.850000},
{"time": 11.448000, "throw": 74.850000},
{"time": 11.456000, "throw": 74.850000},
{"time": 11.464000, "throw": 74.850000},
{"time": 11.472000, "throw": 74.850000},
{"time": 11.480000, "throw": 74.850000},
{"time": 11.488000, "throw": 74.850000},
{"time": 11.496000, "throw": 74.850000},
{"time": 11.504000, "throw": 74.850000},
{"time": 11.512000, "throw": 74.850000},
{"time": 11.520000, "throw": 74.850000},
{"time": 11.528000, "throw": 74.850000},
{"time": 11.536000, "throw": 74.850000},
{"time": 11.544000, "throw": 74.850000},
{"time": 11.552000, "throw": 74.850000},
{"time": 11.560000, "throw": 74.850000},
{"time": 11.568000, "throw": 74.850000},
{"time": 11.576000, "throw": 74.850000},
{"time": 11.584000, "throw": 74.850000},
{"time": 11.592000, "throw": 74.850000},
{"time": 11.600000, "throw": 74.850000},
{"time": 11.608000, "throw": 74.850000},
{"time": 11.616000, "throw": 74.850000},
{"time": 11.624000, "throw": 74.850000},
{"time": 11.632000, "throw": 74.850000},
{"time": 11.640000, "throw": 74.850000},
{"time": 11.648000, "throw": 74.850000},
{"time": 11.656000, "throw": 74.850000},
{"time": 11.664000, "throw": 74.850000},
{"time": 11.672000, "throw": 74.850000},
{"time": 11.680000, "throw": 74.850000},
{"time": 11.688000, "throw": 74.850000}
]