[
{"time": -1.000000, "throw": 74.850000},
{"time": -0.992000, "throw": 74.850000},
{"time": -0.984000, "throw": 74.850000},
{"time": -0.976000, "throw": 74.850000},
{"time": -0.968000, "throw": 74.850000},
{"time": -0.960000, "throw": 74.850000},
{"time": -0.952000, "throw": 74.850000},
{"time": -0.944000, "throw": 74.850000},
{"time": -0.936000, "throw": 74.850000},
{"time": -0.928000, "throw": 74.850000},
{"time": -0.920000, "throw": 74.850000},
{"time": -0.912000, "throw": 74.850000},
{"time": -0.904000, "throw": 74.850000},
{"time": -0.896000, "throw": 74.850000},
{"time": -0.888000, "throw": 74.850000},
{"time": -0.880000, "throw": 74.850000},
{"time": -0.872000, "throw": 74.850000},
{"time": -0.864000, "throw": 74.850000},
{"time": -0.856000, "throw": 74.850000},
{"time": -0.848000, "throw": 74.850000},
{"time": -0.840000, "throw": 74.850000},
{"time": -0.832000, "throw": 74.850000},
{"time": -0.824000, "throw": 74.850000},
{"time": -0.816000, "throw": 74.850000},
{"time": -0.808000, "throw": 74.850000},
{"time": -0.800000, "throw": 74.850000},
{"time": -0.792000, "throw": 74.850000},
{"time": -0.784000, "throw": 74.850000},
{"time": -0.776000, "throw": 74.850000},
{"time": -0.768000, "throw": 74.850000},
{"time": -0.760000, "throw": 74.850000},
{"time": -0.752000, "throw": 74.850000},
{"time": -0.744000, "throw": 74.850000},
{"time": -0.736000, "throw": 74.850000},
{"time": -0.728000, "throw": 74.850000},
{"time": -0.720000, "throw": 74.850000},
{"time": -0.712000, "throw": 74.850000},
{"time": -0.704000, "throw": 74.850000},
{"time": -0.696000, "throw": 74.850000},
{"time": -0.688000, "throw": 74.850000},
{"time": -0.680000, "throw": 74.850000},
{"time": -0.672000, "throw": 74.850000},
{"time": -0.664000, "throw": 74.850000},
{"time": -0.656000, "throw": 74.850000},
{"time": -0.648000, "throw": 74.850000},
{"time": -0.640000, "throw": 74.850000},
{"time": -0.632000, "throw": 74.850000},
{"time": -0.624000, "throw": 74.850000},
{"time": -0.616000, "throw": 74.850000},
{"time": -0.608000, "throw": 74.850000},
{"time": -0.600000, "throw": 74.850000},
{"time": -0.592000, "throw": 74.850000},
{"time": -0.584000, "throw": 74.850000},
{"time": -0.576000, "throw": 74.850000},
{"time": -0.568000, "throw": 74.850000},
{"time": -0.560000, "throw": 74.850000},
{"time": -0.552000, "throw": 74.850000},
{"time": -0.544000, "throw": 74.850000},
{"time": -0.536000, "throw": 74.850000},
{"time": -0.528000, "throw": 74.850000},
{"time": -0.520000, "throw": 74.850000},
{"time": -0.512000, "throw": 74.850000},
{"time": -0.504000, "throw": 74.850000},
{"time": -0.496000, "throw": 74.850000},
{"time": -0.488000, "throw": 74.850000},
{"time": -0.480000, "throw": 74.850000},
{"time": -0.472000, "throw": 74.850000},
{"time": -0.464000, "throw": 74.850000},
{"time": -0.456000, "throw": 74.850000},
{"time": -0.448000, "throw": 74.850000},
{"time": -0.440000, "throw": 74.850000},
{"time": -0.432000, "throw": 74.850000},
{"time": -0.424000, "throw": 74.850000},
{"time": -0.416000, "throw": 74.850000},
{"time": -0.408000, "throw": 74.850000},
{"time": -0.400000, "throw": 74.850000},
{"time": -0.392000, "throw": 74.850000},
{"time": -0.384000, "throw": 74.850000},
{"time": -0.376000, "throw": 74.850000},
{"time": -0.368000, "throw": 74.850000},
{"time": -0.360000, "throw": 74.850000},
{"time": -0.352000, "throw": 74.850000},
{"time": -0.344000, "throw": 74.850000},
{"time": -0.336000, "throw": 74.850000},
{"time": -0.328000, "throw": 74.850000},
{"time": -0.320000, "throw": 74.850000},
{"time": -0.312000, "throw": 74.850000},
{"time": -0.304000, "throw": 74.850000},
{"time": -0.296000, "throw": 74.850000},
{"time": -0.288000, "throw": 74.850000},
{"time": -0.280000, "throw": 74.850000},
{"time": -0.272000, "throw": 74.850000},
{"time": -0.264000, "throw": 74.850000},
{"time": -0.256000, "throw": 74.850000},
{"time": -0.248000, "throw": 74.850000},
{"time": -0.240000, "throw": 74.850000},
{"time": -0.232000, "throw": 74.850000},
{"time": -0.224000, "throw": 74.850000},
{"time": -0.216000, "throw": 74.850000},
{"time": -0.208000, "throw": 74.850000},
{"time": -0.200000, "throw": 74.850000},
{"time": -0.192000, "throw": 74.850000},
{"time": -0.184000, "throw": 74.850000},
{"time": -0.176000, "throw": 74.850000},
{"time": -0.168000, "throw": 74.850000},
{"time": -0.160000, "throw": 74.850000},
{"time": -0.152000, "throw": 74.850000},
{"time": -0.144000, "throw": 74.850000},
{"time": -0.136000, "throw": 74.850000},
{"time": -0.128000, "throw": 74.850000},
{"time": -0.120000, "throw": 74.850000},
{"time": -0.112000, "throw": 74.850000},
{"time": -0.104000, "throw": 74.850000},
{"time": -0.096000, "throw": 74.850000},
{"time": -0.088000, "throw": 74.850000},
{"time": -0.080000, "throw": 74.850000},
{"time": -0.072000, "throw": 74.850000},
{"time": -0.064000, "throw": 74.850000},
{"time": -0.056000, "throw": 74.850000},
{"time": -0.048000, "throw": 74.850000},
{"time": -0.040000, "throw": 74.850000},
{"time": -0.032000, "throw": 74.850000},
{"time": -0.024000, "throw": 74.850000},
{"time": -0.016000, "throw": 74.850000},
{"time": -0.008000, "throw": 74.850000},
{"time": 0.000000, "throw": 74.850000},
{"time": 0.008000, "throw": 74.850000},
{"time": 0.016000, "throw": 74.850000},
{"time": 0.024000, "throw": 74.850000},
{"time": 0.032000, "throw": 74.850000},
{"time": 0.040000, "throw": 74.850000},
{"time": 0.048000, "throw": 74.850000},
{"time": 0.056000, "throw": 74.850000},
{"time": 0.064000, "throw": 74.850000},
{"time": 0.072000, "throw": 74.850000},
{"time": 0.080000, "throw": 74.850000},
{"time": 0.088000, "throw": 74.850000},
{"time": 0.096000, "throw": 74.850000},
{"time": 0.104000, "throw": 74.850000},
{"time": 0.112000, "throw": 74.850000},
{"time": 0.120000, "throw": 74.850000},
{"time": 0.128000, "throw": 74.850000},
{"time": 0.136000, "throw": 74.850000},
{"time": 0.144000, "throw": 74.850000},
{"time": 0.152000, "throw": 74.850000},
{"time": 0.160000, "throw": 74.850000},
{"time": 0.168000, "throw": 74.850000},
{"time": 0.176000, "throw": 74.850000},
{"time": 0.184000, "throw": 74.850000},
{"time": 0.192000, "throw": 74.850000},
{"time": 0.200000, "throw": 74.850000},
{"time": 0.208000, "throw": 74.850000},
{"time": 0.216000, "throw": 74.850000},
{"time": 0.224000, "throw": 74.850000},
{"time": 0.232000, "throw": 74.850000},
{"time": 0.240000, "throw": 74.850000},
{"time": 0.248000, "throw": 74.850000},
{"time": 0.256000, "throw": 74.850000},
{"time": 0.264000, "throw": 74.850000},
{"time": 0.272000, "throw": 74.850000},
{"time": 0.280000, "throw": 74.850000},
{"time": 0.288000, "throw": 74.850000},
{"time": 0.296000, "throw": 74.850000},
{"time": 0.304000, "throw": 74.850000},
{"time": 0.312000, "throw": 74.850000},
{"time": 0.320000, "throw": 74.850000},
{"time": 0.328000, "throw": 74.850000},
{"time": 0.336000, "throw": 74.850000},
{"time": 0.344000, "throw": 74.850000},
{"time": 0.352000, "throw": 74.850000},
{"time": 0.360000, "throw": 74.850000},
{"time": 0.368000, "throw": 74.850000},
{"time": 0.376000, "throw": 74.850000},
{"time": 0.384000, "throw": 74.850000},
{"time": 0.392000, "throw": 74.850000},
{"time": 0.400000, "throw": 74.850000},
{"time": 0.408000, "throw": 74.850000},
{"time": 0.416000, "throw": 74.850000},
{"time": 0.424000, "throw": 74.850000},
{"time": 0.432000, "throw": 74.850000},
{"time": 0.440000, "throw": 74.850000},
{"time": 0.448000, "throw": 74.850000},
{"time": 0.456000, "throw": 74.850000},
{"time": 0.464000, "throw": 74.850000},
{"time": 0.472000, "throw": 74.850000},
{"time": 0.480000, "throw": 74.850000},
{"time": 0.488000, "throw": 74.850000},
{"time": 0.496000, "throw": 74.850000},
{"time": 0.504000, "throw": 74.850000},
{"time": 0.512000, "throw": 74.850000},
{"time": 0.520000, "throw": 74.850000},
{"time": 0.528000, "throw": 74.850000},
{"time": 0.536000, "throw": 74.850000},
{"time": 0.544000, "throw": 74.850000},
{"time": 0.552000, "throw": 74.850000},
{"time": 0.560000, "throw": 74.850000},
{"time": 0.568000, "throw": 74.850000},
{"time": 0.576000, "throw": 74.850000},
{"time": 0.584000, "throw": 74.850000},
{"time": 0.592000, "throw": 74.850000},
{"time": 0.600000, "throw": 74.850000},
{"time": 0.608000, "throw": 74.850000},
{"time": 0.616000, "throw": 74.850000},
{"time": 0.624000, "throw": 74.850000},
{"time": 0.632000, "throw": 74.850000},
{"time": 0.640000, "throw": 74.850000},
{"time": 0.648000, "throw": 74.850000},
{"time": 0.656000, "throw": 74.850000},
{"time": 0.664000, "throw": 74.850000},
{"time": 0.672000, "throw": 74.850000},
{"time": 0.680000, "throw": 74.850000},
{"time": 0.688000, "throw": 74.850000},
{"time": 0.696000, "throw": 74.850000},
{"time": 0.704000, "throw": 74.850000},
{"time": 0.712000, "throw": 74.850000},
{"time": 0.720000, "throw": 74.850000},
{"time": 0.728000, "throw": 74.850000},
{"time": 0.736000, "throw": 74.850000},
{"time": 0.744000, "throw": 74.850000},
{"time": 0.752000, "throw": 74.850000},
{"time": 0.760000, "throw": 74.850000}
]