[
{"time": -1.000000, "throw": 74.850000},
{"time": -0.992000, "throw": 74.850000},
{"time": -0.984000, "throw": 74.850000},
{"time": -0.976000, "throw": 74.850000},
{"time": -0.968000, "throw": 74.850000},
{"time": -0.960000, "throw": 74.850000},
{"time": -0.952000, "throw": 74.850000},
{"time": -0.944000, "throw": 74.850000},
{"time": -0.936000, "throw": 74.850000},
{"time": -0.928000, "throw": 74.850000},
{"time": -0.920000, "throw": 74.850000},
{"time": -0.912000, "throw": 74.850000},
{"time": -0.904000, "throw": 74.850000},
{"time": -0.896000, "throw": 74.850000},
{"time": -0.888000, "throw": 74.850000},
{"time": -0.880000, "throw": 74.850000},
{"time": -0.872000, "throw": 74.850000},
{"time": -0.864000, "throw": 74.850000},
{"time": -0.856000, "throw": 74.850000},
{"time": -0.848000, "throw": 74.850000},
{"time": -0.840000, "throw": 74.850000},
{"time": -0.832000, "throw": 74.850000},
{"time": -0.824000, "throw": 74.850000},
{"time": -0.816000, "throw": 74.850000},
{"time": -0.808000, "throw": 74.850000},
{"time": -0.800000, "throw": 74.850000},
{"time": -0.792000, "throw": 74.850000},
{"time": -0.784000, "throw": 74.850000},
{"time": -0.776000, "throw": 74.850000},
{"time": -0.768000, "throw": 74.850000},
{"time": -0.760000, "throw": 74.850000},
{"time": -0.752000, "throw": 74.850000},
{"time": -0.744000, "throw": 74.850000},
{"time": -0.736000, "throw": 74.850000},
{"time": -0.728000, "throw": 74.850000},
{"time": -0.720000, "throw": 74.850000},
{"time": -0.712000, "throw": 74.850000},
{"time": -0.704000, "throw": 74.850000},
{"time": -0.696000, "throw": 74.850000},
{"time": -0.688000, "throw": 74.850000},
{"time": -0.680000, "throw": 74.850000},
{"time": -0.672000, "throw": 74.850000},
{"time": -0.664000, "throw": 74.850000},
{"time": -0.656000, "throw": 74.850000},
{"time": -0.648000, "throw": 74.850000},
{"time": -0.640000, "throw": 74.850000},
{"time": -0.632000, "throw": 74.850000},
{"time": -0.624000, "throw": 74.850000},
{"time": -0.616000, "throw": 74.850000},
{"time": -0.608000, "throw": 74.850000},
{"time": -0.600000, "throw": 74.850000},
{"time": -0.592000, "throw": 74.850000},
{"time": -0.584000, "throw": 74.850000},
{"time": -0.576000, "throw": 74.850000},
{"time": -0.568000, "throw": 74.850000},
{"time": -0.560000, "throw": 74.850000},
{"time": -0.552000, "throw": 74.850000},
{"time": -0.544000, "throw": 74.850000},
{"time": -0.536000, "throw": 74.850000},
{"time": -0.528000, "throw": 74.850000},
{"time": -0.520000, "throw": 74.850000},
{"time": -0.512000, "throw": 74.850000},
{"time": -0.504000, "throw": 74.850000},
{"time": -0.496000, "throw": 74.850000},
{"time": -0.488000, "throw": 74.850000},
{"time": -0.480000, "throw": 74.850000},
{"time": -0.472000, "throw": 74.850000},
{"time": -0.464000, "throw": 74.850000},
{"time": -0.456000, "throw": 74.850000},
{"time": -0.448000, "throw": 74.850000},
{"time": -0.440000, "throw": 74.850000},
{"time": -0.432000, "throw": 74.850000},
{"time": -0.424000, "throw": 74.850000},
{"time": -0.416000, "throw": 74.850000},
{"time": -0.408000, "throw": 74.850000},
{"time": -0.400000, "throw": 74.850000},
{"time": -0.392000, "throw": 74.850000},
{"time": -0.384000, "throw": 74.850000},
{"time": -0.376000, "throw": 74.850000},
{"time": -0.368000, "throw": 74.850000},
{"time": -0.360000, "throw": 74.850000},
{"time": -0.352000, "throw": 74.850000},
{"time": -0.344000, "throw": 74.850000},
{"time": -0.336000, "throw": 74.850000},
{"time": -0.328000, "throw": 74.850000},
{"time": -0.320000, "throw": 74.850000},
{"time": -0.312000, "throw": 74.850000},
{"time": -0.304000, "throw": 74.850000},
{"time": -0.296000, "throw": 74.850000},
{"time": -0.288000, "throw": 74.850000},
{"time": -0.280000, "throw": 74.850000},
{"time": -0.272000, "throw": 74.850000},
{"time": -0.264000, "throw": 74.850000},
{"time": -0.256000, "throw": 74.850000},
{"time": -0.248000, "throw": 74.850000},
{"time": -0.240000, "throw": 74.850000},
{"time": -0.232000, "throw": 74.850000},
{"time": -0.224000, "throw": 74.850000},
{"time": -0.216000, "throw": 74.850000},
{"time": -0.208000, "throw": 74.850000},
{"time": -0.200000, "throw": 74.850000},
{"time": -0.192000, "throw": 74.850000},
{"time": -0.184000, "throw": 74.850000},
{"time": -0.176000, "throw": 74.850000},
{"time": -0.168000, "throw": 74.850000},
{"time": -0.160000, "throw": 74.850000},
{"time": -0.152000, "throw": 74.850000},
{"time": -0.144000, "throw": 74.850000},
{"time": -0.136000, "throw": 74.850000},
{"time": -0.128000, "throw": 74.850000},
{"time": -0.120000, "throw": 74.850000},
{"time": -0.112000, "throw": 74.850000},
{"time": -0.104000, "throw": 74.850000},
{"time": -0.096000, "throw": 74.850000},
{"time": -0.088000, "throw": 74.850000},
{"time": -0.080000, "throw": 74.850000},
{"time": -0.072000, "throw": 74.850000},
{"time": -0.064000, "throw": 74.850000},
{"time": -0.056000, "throw": 74.850000},
{"time": -0.048000, "throw": 74.850000},
{"time": -0.040000, "throw": 74.850000},
{"time": -0.032000, "throw": 74.850000},
{"time": -0.024000, "throw": 74.850000},
{"time": -0.016000, "throw": 74.850000},
{"time": -0.008000, "throw": 74.850000},
{"time": 0.000000, "throw": 74.850000},
{"time": 0.008000, "throw": 74.850000},
{"time": 0.016000, "throw": 74.850000},
{"time": 0.024000, "throw": 74.850000},
{"time": 0.032000, "throw": 74.850000},
{"time": 0.040000, "throw": 74.850000},
{"time": 0.048000, "throw": 74.850000},
{"time": 0.056000, "throw": 74.850000},
{"time": 0.064000, "throw": 74.850000},
{"time": 0.072000, "throw": 74.850000},
{"time": 0.080000, "throw": 74.850000},
{"time": 0.088000, "throw": 74.850000},
{"time": 0.096000, "throw": 74.850000},
{"time": 0.104000, "throw": 74.850000},
{"time": 0.112000, "throw": 74.850000},
{"time": 0.120000, "throw": 74.850000},
{"time": 0.128000, "throw": 74.850000},
{"time": 0.136000, "throw": 74.850000},
{"time": 0.144000, "throw": 74.850000},
{"time": 0.152000, "throw": 74.850000},
{"time": 0.160000, "throw": 74.850000},
{"time": 0.168000, "throw": 74.850000},
{"time": 0.176000, "throw": 74.850000},
{"time": 0.184000, "throw": 74.850000},
{"time": 0.192000, "throw": 74.850000},
{"time": 0.200000, "throw": 74.850000},
{"time": 0.208000, "throw": 74.850000},
{"time": 0.216000, "throw": 74.850000},
{"time": 0.224000, "throw": 74.850000},
{"time": 0.232000, "throw": 74.850000},
{"time": 0.240000, "throw": 74.850000},
{"time": 0.248000, "throw": 74.850000},
{"time": 0.256000, "throw": 74.850000},
{"time": 0.264000, "throw": 74.850000},
{"time": 0.272000, "throw": 74.850000},
{"time": 0.280000, "throw": 74.850000},
{"time": 0.288000, "throw": 74.850000},
{"time": 0.296000, "throw": 74.850000},
{"time": 0.304000, "throw": 74.850000},
{"time": 0.312000, "throw": 74.850000},
{"time": 0.320000, "throw": 74.850000},
{"time": 0.328000, "throw": 74.850000},
{"time": 0.336000, "throw": 74.850000},
{"time": 0.344000, "throw": 74.850000},
{"time": 0.352000, "throw": 74.850000},
{"time": 0.360000, "throw": 74.850000},
{"time": 0.368000, "throw": 74.850000},
{"time": 0.376000, "throw": 74.850000},
{"time": 0.384000, "throw": 74.850000},
{"time": 0.392000, "throw": 74.850000},
{"time": 0.400000, "throw": 74.850000},
{"time": 0.408000, "throw": 74.850000},
{"time": 0.416000, "throw": 74.850000},
{"time": 0.424000, "throw": 74.850000},
{"time": 0.432000, "throw": 74.850000},
{"time": 0.440000, "throw": 74.850000},
{"time": 0.448000, "throw": 74.850000},
{"time": 0.456000, "throw": 74.850000},
{"time": 0.464000, "throw": 74.850000},
{"time": 0.472000, "throw": 74.850000},
{"time": 0.480000, "throw": 74.850000},
{"time": 0.488000, "throw": 74.850000},
{"time": 0.496000, "throw": 74.850000},
{"time": 0.504000, "throw": 74.850000},
{"time": 0.512000, "throw": 74.850000},
{"time": 0.520000, "throw": 74.850000},
{"time": 0.528000, "throw": 74.850000},
{"time": 0.536000, "throw": 74.850000},
{"time": 0.544000, "throw": 74.850000},
{"time": 0.552000, "throw": 74.850000},
{"time": 0.560000, "throw": 74.850000},
{"time": 0.568000, "throw": 74.850000},
{"time": 0.576000, "throw": 74.850000},
{"time": 0.584000, "throw": 74.850000},
{"time": 0.592000, "throw": 74.850000},
{"time": 0.600000, "throw": 74.850000},
{"time": 0.608000, "throw": 74.850000},
{"time": 0.616000, "throw": 74.850000},
{"time": 0.624000, "throw": 74.850000},
{"time": 0.632000, "throw": 74.850000},
{"time": 0.640000, "throw": 74.850000},
{"time": 0.648000, "throw": 74.850000},
{"time": 0.656000, "throw": 74.850000},
{"time": 0.664000, "throw": 74.850000},
{"time": 0.672000, "throw": 74.850000},
{"time": 0.680000, "throw": 74.850000},
{"time": 0.688000, "throw": 74.850000},
{"time": 0.696000, "throw": 74.850000},
{"time": 0.704000, "throw": 74.850000},
{"time": 0.712000, "throw": 74.850000},
{"time": 0.720000, "throw": 74.850000},
{"time": 0.728000, "throw": 74.850000},
{"time": 0.736000, "throw": 74.850000},
{"time": 0.744000, "throw": 74.850000},
{"time": 0.752000, "throw": 74.850000},
{"time": 0.760000, "throw": 74.850000},
{"time": 0.768000, "throw": 74.850000},
{"time": 0.776000, "throw": 74.850000},
{"time": 0.784000, "throw": 74.850000},
{"time": 0.792000, "throw": 74.850000},
{"time": 0.800000, "throw": 74.850000},
{"time": 0.808000, "throw": 74.850000},
{"time": 0.816000, "throw": 74.850000},
{"time": 0.824000, "throw": 74.850000},
{"time": 0.832000, "throw": 74.850000},
{"time": 0.840000, "throw": 74.850000},
{"time": 0.848000, "throw": 74.850000},
{"time": 0.856000, "throw": 74.850000},
{"time": 0.864000, "throw": 74.850000},
{"time": 0.872000, "throw": 74.850000},
{"time": 0.880000, "throw": 74.850000},
{"time": 0.888000, "throw": 74.850000},
{"time": 0.896000, "throw": 74.850000},
{"time": 0.904000, "throw": 74.850000},
{"time": 0.912000, "throw": 74.850000},
{"time": 0.920000, "throw": 74.850000},
{"time": 0.928000, "throw": 74.850000},
{"time": 0.936000, "throw": 74.850000},
{"time": 0.944000, "throw": 74.850000},
{"time": 0.952000, "throw": 74.850000},
{"time": 0.960000, "throw": 74.850000},
{"time": 0.968000, "throw": 74.850000},
{"time": 0.976000, "throw": 74.850000},
{"time": 0.984000, "throw": 74.850000},
{"time": 0.992000, "throw": 74.850000},
{"time": 1.000000, "throw": 74.850000},
{"time": 1.008000, "throw": 74.850000},
{"time": 1.016000, "throw": 74.850000},
{"time": 1.024000, "throw": 74.850000},
{"time": 1.032000, "throw": 74.850000},
{"time": 1.040000, "throw": 74.850000},
{"time": 1.048000, "throw": 74.850000},
{"time": 1.056000, "throw": 74.850000},
{"time": 1.064000, "throw": 74.850000},
{"time": 1.072000, "throw": 74.850000},
{"time": 1.080000, "throw": 74.850000},
{"time": 1.088000, "throw": 74.850000},
{"time": 1.096000, "throw": 74.850000},
{"time": 1.104000, "throw": 74.850000},
{"time": 1.112000, "throw": 74.850000},
{"time": 1.120000, "throw": 74.850000},
{"time": 1.128000, "throw": 74.850000},
{"time": 1.136000, "throw": 74.850000},
{"time": 1.144000, "throw": 74.850000},
{"time": 1.152000, "throw": 74.850000},
{"time": 1.160000, "throw": 74.850000},
{"time": 1.168000, "throw": 74.850000},
{"time": 1.176000, "throw": 74.850000},
{"time": 1.184000, "throw": 74.850000},
{"time": 1.192000, "throw": 74.850000},
{"time": 1.200000, "throw": 74.850000},
{"time": 1.208000, "throw": 74.850000},
{"time": 1.216000, "throw": 74.850000},
{"time": 1.224000, "throw": 74.850000},
{"time": 1.232000, "throw": 74.850000},
{"time": 1.240000, "throw": 74.850000},
{"time": 1.248000, "throw": 74.850000},
{"time": 1.256000, "throw": 74.850000},
{"time": 1.264000, "throw": 74.850000},
{"time": 1.272000, "throw": 74.850000},
{"time": 1.280000, "throw": 74.850000},
{"time": 1.288000, "throw": 74.850000},
{"time": 1.296000, "throw": 74.850000},
{"time": 1.304000, "throw": 74.850000},
{"time": 1.312000, "throw": 74.850000},
{"time": 1.320000, "throw": 74.850000},
{"time": 1.328000, "throw": 74.850000},
{"time": 1.336000, "throw": 74.850000},
{"time": 1.344000, "throw": 74.850000},
{"time": 1.352000, "throw": 74.850000},
{"time": 1.360000, "throw": 74.850000},
{"time": 1.368000, "throw": 74.850000},
{"time": 1.376000, "throw": 74.850000},
{"time": 1.384000, "throw": 74.850000},
{"time": 1.392000, "throw": 74.850000},
{"time": 1.400000, "throw": 74.850000},
{"time": 1.408000, "throw": 74.850000},
{"time": 1.416000, "throw": 74.850000},
{"time": 1.424000, "throw": 74.850000},
{"time": 1.432000, "throw": 74.850000},
{"time": 1.440000, "throw": 74.850000},
{"time": 1.448000, "throw": 74.850000},
{"time": 1.456000, "throw": 74.850000},
{"time": 1.464000, "throw": 74.850000},
{"time": 1.472000, "throw": 74.850000},
{"time": 1.480000, "throw": 74.850000},
{"time": 1.488000, "throw": 74.850000},
{"time": 1.496000, "throw": 74.850000},
{"time": 1.504000, "throw": 74.850000},
{"time": 1.512000, "throw": 74.850000},
{"time": 1.520000, "throw": 74.850000},
{"time": 1.528000, "throw": 74.850000},
{"time": 1.536000, "throw": 74.850000},
{"time": 1.544000, "throw": 74.850000},
{"time": 1.552000, "throw": 74.850000},
{"time": 1.560000, "throw": 74.850000},
{"time": 1.568000, "throw": 74.850000},
{"time": 1.576000, "throw": 74.850000},
{"time": 1.584000, "throw": 74.850000},
{"time": 1.592000, "throw": 74.850000},
{"time": 1.600000, "throw": 74.850000},
{"time": 1.608000, "throw": 74.850000},
{"time": 1.616000, "throw": 74.850000},
{"time": 1.624000, "throw": 74.850000},
{"time": 1.632000, "throw": 74.850000},
{"time": 1.640000, "throw": 74.850000},
{"time": 1.648000, "throw": 74.850000},
{"time": 1.656000, "throw": 74.850000},
{"time": 1.664000, "throw": 74.850000},
{"time": 1.672000, "throw": 74.850000},
{"time": 1.680000, "throw": 74.850000},
{"time": 1.688000, "throw": 74.850000},
{"time": 1.696000, "throw": 74.850000},
{"time": 1.704000, "throw": 74.850000},
{"time": 1.712000, "throw": 74.850000},
{"time": 1.720000, "throw": 74.850000},
{"time": 1.728000, "throw": 74.850000},
{"time": 1.736000, "throw": 74.850000},
{"time": 1.744000, "throw": 74.850000},
{"time": 1.752000, "throw": 74.850000},
{"time": 1.760000, "throw": 74.850000},
{"time": 1.768000, "throw": 74.850000},
{"time": 1.776000, "throw": 74.850000},
{"time": 1.784000, "throw": 74.850000},
{"time": 1.792000, "throw": 74.850000},
{"time": 1.800000, "throw": 74.850000},
{"time": 1.808000, "throw": 74.850000},
{"time": 1.816000, "throw": 74.850000},
{"time": 1.824000, "throw": 74.850000},
{"time": 1.832000, "throw": 74.850000},
{"time": 1.840000, "throw": 74.850000},
{"time": 1.848000, "throw": 74.850000},
{"time": 1.856000, "throw": 74.850000},
{"time": 1.864000, "throw": 74.850000},
{"time": 1.872000, "throw": 74.850000},
{"time": 1.880000, "throw": 74.850000},
{"time": 1.888000, "throw": 74.850000},
{"time": 1.896000, "throw": 74.850000},
{"time": 1.904000, "throw": 74.850000},
{"time": 1.912000, "throw": 74.850000},
{"time": 1.920000, "throw": 74.850000},
{"time": 1.928000, "throw": 74.850000},
{"time": 1.936000, "throw": 74.850000},
{"time": 1.944000, "throw": 74.850000},
{"time": 1.952000, "throw": 74.850000},
{"time": 1.960000, "throw": 74.850000},
{"time": 1.968000, "throw": 74.850000},
{"time": 1.976000, "throw": 74.850000},
{"time": 1.984000, "throw": 74.850000},
{"time": 1.992000, "throw": 74.850000},
{"time": 2.000000, "throw": 74.850000},
{"time": 2.008000, "throw": 74.850000},
{"time": 2.016000, "throw": 74.850000},
{"time": 2.024000, "throw": 74.850000},
{"time": 2.032000, "throw": 74.850000},
{"time": 2.040000, "throw": 74.850000},
{"time": 2.048000, "throw": 74.850000},
{"time": 2.056000, "throw": 74.850000},
{"time": 2.064000, "throw": 74.850000},
{"time": 2.072000, "throw": 74.850000},
{"time": 2.080000, "throw": 74.850000},
{"time": 2.088000, "throw": 74.850000},
{"time": 2.096000, "throw": 74.850000},
{"time": 2.104000, "throw": 74.850000},
{"time": 2.112000, "throw": 74.850000},
{"time": 2.120000, "throw": 74.850000},
{"time": 2.128000, "throw": 74.850000},
{"time": 2.136000, "throw": 74.850000},
{"time": 2.144000, "throw": 74.850000},
{"time": 2.152000, "throw": 74.850000},
{"time": 2.160000, "throw": 74.850000},
{"time": 2.168000, "throw": 74.850000},
{"time": 2.176000, "throw": 74.850000},
{"time": 2.184000, "throw": 74.850000},
{"time": 2.192000, "throw": 74.850000},
{"time": 2.200000, "throw": 74.850000},
{"time": 2.208000, "throw": 74.850000},
{"time": 2.216000, "throw": 74.850000},
{"time": 2.224000, "throw": 74.850000},
{"time": 2.232000, "throw": 74.850000},
{"time": 2.240000, "throw": 74.850000},
{"time": 2.248000, "throw": 74.850000},
{"time": 2.256000, "throw": 74.850000},
{"time": 2.264000, "throw": 74.850000},
{"time": 2.272000, "throw": 74.850000},
{"time": 2.280000, "throw": 74.850000},
{"time": 2.288000, "throw": 74.850000},
{"time": 2.296000, "throw": 74.850000},
{"time": 2.304000, "throw": 74.850000},
{"time": 2.312000, "throw": 74.850000},
{"time": 2.320000, "throw": 74.850000},
{"time": 2.328000, "throw": 74.850000},
{"time": 2.336000, "throw": 74.850000},
{"time": 2.344000, "throw": 74.850000},
{"time": 2.352000, "throw": 74.850000},
{"time": 2.360000, "throw": 74.850000},
{"time": 2.368000, "throw": 74.850000},
{"time": 2.376000, "throw": 74.850000},
{"time": 2.384000, "throw": 74.850000},
{"time": 2.392000, "throw": 74.850000},
{"time": 2.400000, "throw": 74.850000},
{"time": 2.408000, "throw": 74.850000},
{"time": 2.416000, "throw": 74.850000},
{"time": 2.424000, "throw": 74.850000},
{"time": 2.432000, "throw": 74.850000},
{"time": 2.440000, "throw": 74.850000},
{"time": 2.448000, "throw": 74.850000},
{"time": 2.456000, "throw": 74.850000},
{"time": 2.464000, "throw": 74.850000},
{"time": 2.472000, "throw": 74.850000},
{"time": 2.480000, "throw": 74.850000},
{"time": 2.488000, "throw": 74.850000},
{"time": 2.496000, "throw": 74.850000},
{"time": 2.504000, "throw": 74.850000},
{"time": 2.512000, "throw": 74.850000},
{"time": 2.520000, "throw": 74.850000},
{"time": 2.528000, "throw": 74.850000},
{"time": 2.536000, "throw": 74.850000},
{"time": 2.544000, "throw": 74.850000},
{"time": 2.552000, "throw": 74.850000},
{"time": 2.560000, "throw": 74.850000},
{"time": 2.568000, "throw": 74.850000},
{"time": 2.576000, "throw": 74.850000},
{"time": 2.584000, "throw": 74.850000},
{"time": 2.592000, "throw": 74.850000},
{"time": 2.600000, "throw": 74.850000},
{"time": 2.608000, "throw": 74.850000},
{"time": 2.616000, "throw": 74.850000},
{"time": 2.624000, "throw": 74.850000},
{"time": 2.632000, "throw": 74.850000},
{"time": 2.640000, "throw": 74.850000},
{"time": 2.648000, "throw": 74.850000},
{"time": 2.656000, "throw": 74.850000},
{"time": 2.664000, "throw": 74.850000},
{"time": 2.672000, "throw": 74.850000},
{"time": 2.680000, "throw": 74.850000},
{"time": 2.688000, "throw": 74.850000},
{"time": 2.696000, "throw": 74.850000},
{"time": 2.704000, "throw": 74.850000},
{"time": 2.712000, "throw": 74.850000},
{"time": 2.720000, "throw": 74.850000},
{"time": 2.728000, "throw": 74.850000},
{"time": 2.736000, "throw": 74.850000},
{"time": 2.744000, "throw": 74.850000},
{"time": 2.752000, "throw": 74.850000},
{"time": 2.760000, "throw": 74.850000},
{"time": 2.768000, "throw": 74.850000},
{"time": 2.776000, "throw": 74.850000},
{"time": 2.784000, "throw": 74.850000},
{"time": 2.792000, "throw": 74.850000},
{"time": 2.800000, "throw": 74.850000},
{"time": 2.808000, "throw": 74.850000},
{"time": 2.816000, "throw": 74.850000},
{"time": 2.824000, "throw": 74.850000},
{"time": 2.832000, "throw": 74.850000},
{"time": 2.840000, "throw": 74.850000},
{"time": 2.848000, "throw": 74.850000},
{"time": 2.856000, "throw": 74.850000},
{"time": 2.864000, "throw": 74.850000},
{"time": 2.872000, "throw": 74.850000},
{"time": 2.880000, "throw": 74.850000},
{"time": 2.888000, "throw": 74.850000},
{"time": 2.896000, "throw": 74.850000},
{"time": 2.904000, "throw": 74.850000},
{"time": 2.912000, "throw": 74.850000},
{"time": 2.920000, "throw": 74.850000},
{"time": 2.928000, "throw": 74.850000},
{"time": 2.936000, "throw": 74.850000},
{"time": 2.944000, "throw": 74.850000},
{"time": 2.952000, "throw": 74.850000},
{"time": 2.960000, "throw": 74.850000},
{"time": 2.968000, "throw": 74.850000},
{"time": 2.976000, "throw": 74.850000},
{"time": 2.984000, "throw": 74.850000},
{"time": 2.992000, "throw": 74.850000},
{"time": 3.000000, "throw": 74.850000},
{"time": 3.008000, "throw": 74.850000},
{"time": 3.016000, "throw": 74.850000},
{"time": 3.024000, "throw": 74.850000},
{"time": 3.032000, "throw": 74.850000},
{"time": 3.040000, "throw": 74.850000},
{"time": 3.048000, "throw": 74.850000},
{"time": 3.056000, "throw": 74.850000},
{"time": 3.064000, "throw": 74.850000},
{"time": 3.072000, "throw": 74.850000},
{"time": 3.080000, "throw": 74.850000},
{"time": 3.088000, "throw": 74.850000},
{"time": 3.096000, "throw": 74.850000},
{"time": 3.104000, "throw": 74.850000},
{"time": 3.112000, "throw": 74.850000},
{"time": 3.120000, "throw": 74.850000},
{"time": 3.128000, "throw": 74.850000},
{"time": 3.136000, "throw": 74.850000},
{"time": 3.144000, "throw": 74.850000},
{"time": 3.152000, "throw": 74.850000},
{"time": 3.160000, "throw": 74.850000},
{"time": 3.168000, "throw": 74.850000},
{"time": 3.176000, "throw": 74.850000},
{"time": 3.184000, "throw": 74.850000},
{"time": 3.192000, "throw": 74.850000},
{"time": 3.200000, "throw": 74.850000},
{"time": 3.208000, "throw": 74.850000},
{"time": 3.216000, "throw": 74.850000},
{"time": 3.224000, "throw": 74.850000},
{"time": 3.232000, "throw": 74.850000},
{"time": 3.240000, "throw": 74.850000},
{"time": 3.248000, "throw": 74.850000},
{"time": 3.256000, "throw": 74.850000},
{"time": 3.264000, "throw": 74.850000},
{"time": 3.272000, "throw": 74.850000},
{"time": 3.280000, "throw": 74.850000},
{"time": 3.288000, "throw": 74.850000},
{"time": 3.296000, "throw": 74.850000},
{"time": 3.304000, "throw": 74.850000},
{"time": 3.312000, "throw": 74.850000},
{"time": 3.320000, "throw": 74.850000},
{"time": 3.328000, "throw": 74.850000},
{"time": 3.336000, "throw": 74.850000},
{"time": 3.344000, "throw": 74.850000},
{"time": 3.352000, "throw": 74.850000},
{"time": 3.360000, "throw": 74.850000},
{"time": 3.368000, "throw": 74.850000},
{"time": 3.376000, "throw": 74.850000},
{"time": 3.384000, "throw": 74.850000},
{"time": 3.392000, "throw": 74.850000},
{"time": 3.400000, "throw": 74.850000},
{"time": 3.408000, "throw": 74.850000},
{"time": 3.416000, "throw": 74.850000},
{"time": 3.424000, "throw": 74.850000},
{"time": 3.432000, "throw": 74.850000},
{"time": 3.440000, "throw": 74.850000},
{"time": 3.448000, "throw": 74.850000},
{"time": 3.456000, "throw": 74.850000},
{"time": 3.464000, "throw": 74.850000},
{"time": 3.472000, "throw": 74.850000},
{"time": 3.480000, "throw": 74.850000},
{"time": 3.488000, "throw": 74.850000},
{"time": 3.496000, "throw": 74.850000},
{"time": 3.504000, "throw": 74.850000},
{"time": 3.512000, "throw": 74.850000},
{"time": 3.520000, "throw": 74.850000},
{"time": 3.528000, "throw": 74.850000},
{"time": 3.536000, "throw": 74.850000},
{"time": 3.544000, "throw": 74.850000},
{"time": 3.552000, "throw": 74.850000},
{"time": 3.560000, "throw": 74.850000},
{"time": 3.568000, "throw": 74.850000},
{"time": 3.576000, "throw": 74.850000},
{"time": 3.584000, "throw": 74.850000},
{"time": 3.592000, "throw": 74.850000},
{"time": 3.600000, "throw": 74.850000},
{"time": 3.608000, "throw": 74.850000},
{"time": 3.616000, "throw": 74.850000},
{"time": 3.624000, "throw": 74.850000},
{"time": 3.632000, "throw": 74.850000},
{"time": 3.640000, "throw": 74.850000},
{"time": 3.648000, "throw": 74.850000},
{"time": 3.656000, "throw": 74.850000},
{"time": 3.664000, "throw": 74.850000},
{"time": 3.672000, "throw": 74.850000},
{"time": 3.680000, "throw": 74.850000},
{"time": 3.688000, "throw": 74.850000},
{"time": 3.696000, "throw": 74.850000},
{"time": 3.704000, "throw": 74.850000},
{"time": 3.712000, "throw": 74.850000},
{"time": 3.720000, "throw": 74.850000},
{"time": 3.728000, "throw": 74.850000},
{"time": 3.736000, "throw": 74.850000},
{"time": 3.744000, "throw": 74.850000},
{"time": 3.752000, "throw": 74.850000},
{"time": 3.760000, "throw": 74.850000},
{"time": 3.768000, "throw": 74.850000},
{"time": 3.776000, "throw": 74.850000},
{"time": 3.784000, "throw": 74.850000},
{"time": 3.792000, "throw": 74.850000},
{"time": 3.800000, "throw": 74.850000},
{"time": 3.808000, "throw": 74.850000},
{"time": 3.816000, "throw": 74.850000},
{"time": 3.824000, "throw": 74.850000},
{"time": 3.832000, "throw": 74.850000},
{"time": 3.840000, "throw": 74.850000},
{"time": 3.848000, "throw": 74.850000},
{"time": 3.856000, "throw": 74.850000},
{"time": 3.864000, "throw": 74.850000},
{"time": 3.872000, "throw": 74.850000},
{"time": 3.880000, "throw": 74.850000},
{"time": 3.888000, "throw": 74.850000},
{"time": 3.896000, "throw": 74.850000},
{"time": 3.904000, "throw": 74.850000},
{"time": 3.912000, "throw": 74.850000},
{"time": 3.920000, "throw": 74.850000},
{"time": 3.928000, "throw": 74.850000},
{"time": 3.936000, "throw": 74.850000},
{"time": 3.944000, "throw": 74.850000},
{"time": 3.952000, "throw": 74.850000},
{"time": 3.960000, "throw": 74.850000},
{"time": 3.968000, "throw": 74.850000},
{"time": 3.976000, "throw": 74.850000},
{"time": 3.984000, "throw": 74.850000},
{"time": 3.992000, "throw": 74.850000},
{"time": 4.000000, "throw": 74.850000},
{"time": 4.008000, "throw": 74.850000},
{"time": 4.016000, "throw": 74.850000},
{"time": 4.024000, "throw": 74.850000},
{"time": 4.032000, "throw": 74.850000},
{"time": 4.040000, "throw": 74.850000},
{"time": 4.048000, "throw": 74.850000},
{"time": 4.056000, "throw": 74.850000},
{"time": 4.064000, "throw": 74.850000},
{"time": 4.072000, "throw": 74.850000},
{"time": 4.080000, "throw": 74.850000},
{"time": 4.088000, "throw": 74.850000},
{"time": 4.096000, "throw": 74.850000},
{"time": 4.104000, "throw": 74.850000},
{"time": 4.112000, "throw": 74.850000},
{"time": 4.120000, "throw": 74.850000},
{"time": 4.128000, "throw": 74.850000},
{"time": 4.136000, "throw": 74.850000},
{"time": 4.144000, "throw": 74.850000},
{"time": 4.152000, "throw": 74.850000},
{"time": 4.160000, "throw": 74.850000},
{"time": 4.168000, "throw": 74.850000},
{"time": 4.176000, "throw": 74.850000},
{"time": 4.184000, "throw": 74.850000},
{"time": 4.192000, "throw": 74.850000},
{"time": 4.200000, "throw": 74.850000},
{"time": 4.208000, "throw": 74.850000},
{"time": 4.216000, "throw": 74.850000},
{"time": 4.224000, "throw": 74.850000},
{"time": 4.232000, "throw": 74.850000},
{"time": 4.240000, "throw": 74.850000},
{"time": 4.248000, "throw": 74.850000},
{"time": 4.256000, "throw": 74.850000},
{"time": 4.264000, "throw": 74.850000},
{"time": 4.272000, "throw": 74.850000},
{"time": 4.280000, "throw": 74.850000},
{"time": 4.288000, "throw": 74.850000},
{"time": 4.296000, "throw": 74.850000},
{"time": 4.304000, "throw": 74.850000},
{"time": 4.312000, "throw": 74.850000},
{"time": 4.320000, "throw": 74.850000},
{"time": 4.328000, "throw": 74.850000},
{"time": 4.336000, "throw": 74.850000},
{"time": 4.344000, "throw": 74.850000},
{"time": 4.352000, "throw": 74.850000},
{"time": 4.360000, "throw": 74.850000},
{"time": 4.368000, "throw": 74.850000},
{"time": 4.376000, "throw": 74.850000},
{"time": 4.384000, "throw": 74.850000},
{"time": 4.392000, "throw": 74.850000},
{"time": 4.400000, "throw": 74.850000},
{"time": 4.408000, "throw": 74.850000},
{"time": 4.416000, "throw": 74.850000},
{"time": 4.424000, "throw": 74.850000},
{"time": 4.432000, "throw": 74.850000},
{"time": 4.440000, "throw": 74.850000},
{"time": 4.448000, "throw": 74.850000},
{"time": 4.456000, "throw": 74.850000},
{"time": 4.464000, "throw": 74.850000},
{"time": 4.472000, "throw": 74.850000},
{"time": 4.480000, "throw": 74.850000},
{"time": 4.488000, "throw": 74.850000},
{"time": 4.496000, "throw": 74.850000},
{"time": 4.504000, "throw": 74.850000},
{"time": 4.512000, "throw": 74.850000},
{"time": 4.520000, "throw": 74.850000},
{"time": 4.528000, "throw": 74.850000},
{"time": 4.536000, "throw": 74.850000},
{"time": 4.544000, "throw": 74.850000},
{"time": 4.552000, "throw": 74.850000},
{"time": 4.560000, "throw": 74.850000},
{"time": 4.568000, "throw": 74.850000},
{"time": 4.576000, "throw": 74.850000},
{"time": 4.584000, "throw": 74.850000},
{"time": 4.592000, "throw": 74.850000},
{"time": 4.600000, "throw": 74.850000},
{"time": 4.608000, "throw": 74.850000},
{"time": 4.616000, "throw": 74.850000},
{"time": 4.624000, "throw": 74.850000},
{"time": 4.632000, "throw": 74.850000},
{"time": 4.640000, "throw": 74.850000},
{"time": 4.648000, "throw": 74.850000},
{"time": 4.656000, "throw": 74.850000},
{"time": 4.664000, "throw": 74.850000},
{"time": 4.672000, "throw": 74.850000},
{"time": 4.680000, "throw": 74.850000},
{"time": 4.688000, "throw": 74.850000},
{"time": 4.696000, "throw": 74.850000},
{"time": 4.704000, "throw": 74.850000},
{"time": 4.712000, "throw": 74.850000},
{"time": 4.720000, "throw": 74.850000},
{"time": 4.728000, "throw": 74.850000},
{"time": 4.736000, "throw": 74.850000},
{"time": 4.744000, "throw": 74.850000},
{"time": 4.752000, "throw": 74.850000},
{"time": 4.760000, "throw": 74.850000},
{"time": 4.768000, "throw": 74.850000},
{"time": 4.776000, "throw": 74.850000},
{"time": 4.784000, "throw": 74.850000},
{"time": 4.792000, "throw": 74.850000},
{"time": 4.800000, "throw": 74.850000},
{"time": 4.808000, "throw": 74.850000},
{"time": 4.816000, "throw": 74.850000},
{"time": 4.824000, "throw": 74.850000},
{"time": 4.832000, "throw": 74.850000},
{"time": 4.840000, "throw": 74.850000},
{"time": 4.848000, "throw": 74.850000},
{"time": 4.856000, "throw": 74.850000},
{"time": 4.864000, "throw": 74.850000},
{"time": 4.872000, "throw": 74.850000},
{"time": 4.880000, "throw": 74.850000},
{"time": 4.888000, "throw": 74.850000},
{"time": 4.896000, "throw": 74.850000},
{"time": 4.904000, "throw": 74.850000},
{"time": 4.912000, "throw": 74.850000},
{"time": 4.920000, "throw": 74.850000},
{"time": 4.928000, "throw": 74.850000},
{"time": 4.936000, "throw": 74.850000},
{"time": 4.944000, "throw": 74.850000},
{"time": 4.952000, "throw": 74.850000},
{"time": 4.960000, "throw": 74.850000},
{"time": 4.968000, "throw": 74.850000},
{"time": 4.976000, "throw": 74.850000},
{"time": 4.984000, "throw": 74.850000},
{"time": 4.992000, "throw": 74.850000},
{"time": 5.000000, "throw": 74.850000},
{"time": 5.008000, "throw": 74.850000},
{"time": 5.016000, "throw": 74.850000},
{"time": 5.024000, "throw": 74.850000},
{"time": 5.032000, "throw": 74.850000},
{"time": 5.040000, "throw": 74.850000},
{"time": 5.048000, "throw": 74.850000},
{"time": 5.056000, "throw": 74.850000},
{"time": 5.064000, "throw": 74.850000},
{"time": 5.072000, "throw": 74.850000},
{"time": 5.080000, "throw": 74.850000},
{"time": 5.088000, "throw": 74.850000},
{"time": 5.096000, "throw": 74.850000},
{"time": 5.104000, "throw": 74.850000},
{"time": 5.112000, "throw": 74.850000},
{"time": 5.120000, "throw": 74.850000},
{"time": 5.128000, "throw": 74.850000},
{"time": 5.136000, "throw": 74.850000},
{"time": 5.144000, "throw": 74.850000},
{"time": 5.152000, "throw": 74.850000},
{"time": 5.160000, "throw": 74.850000},
{"time": 5.168000, "throw": 74.850000},
{"time": 5.176000, "throw": 74.850000},
{"time": 5.184000, "throw": 74.850000},
{"time": 5.192000, "throw": 74.850000},
{"time": 5.200000, "throw": 74.850000},
{"time": 5.208000, "throw": 74.850000},
{"time": 5.216000, "throw": 74.850000},
{"time": 5.224000, "throw": 74.850000},
{"time": 5.232000, "throw": 74.850000},
{"time": 5.240000, "throw": 74.850000},
{"time": 5.248000, "throw": 74.850000},
{"time": 5.256000, "throw": 74.850000},
{"time": 5.264000, "throw": 74.850000},
{"time": 5.272000, "throw": 74.850000},
{"time": 5.280000, "throw": 74.850000},
{"time": 5.288000, "throw": 74.850000},
{"time": 5.296000, "throw": 74.850000},
{"time": 5.304000, "throw": 74.850000},
{"time": 5.312000, "throw": 74.850000},
{"time": 5.320000, "throw": 74.850000},
{"time": 5.328000, "throw": 74.850000},
{"time": 5.336000, "throw": 74.850000},
{"time": 5.344000, "throw": 74.850000},
{"time": 5.352000, "throw": 74.850000},
{"time": 5.360000, "throw": 74.850000},
{"time": 5.368000, "throw": 74.850000},
{"time": 5.376000, "throw": 74.850000},
{"time": 5.384000, "throw": 74.850000},
{"time": 5.392000, "throw": 74.850000},
{"time": 5.400000, "throw": 74.850000},
{"time": 5.408000, "throw": 74.850000},
{"time": 5.416000, "throw": 74.850000},
{"time": 5.424000, "throw": 74.850000},
{"time": 5.432000, "throw": 74.850000},
{"time": 5.440000, "throw": 74.850000},
{"time": 5.448000, "throw": 74.850000},
{"time": 5.456000, "throw": 74.850000},
{"time": 5.464000, "throw": 74.850000},
{"time": 5.472000, "throw": 74.850000},
{"time": 5.480000, "throw": 74.850000},
{"time": 5.488000, "throw": 74.850000},
{"time": 5.496000, "throw": 74.850000},
{"time": 5.504000, "throw": 74.850000},
{"time": 5.512000, "throw": 74.850000},
{"time": 5.520000, "throw": 74.850000},
{"time": 5.528000, "throw": 74.850000},
{"time": 5.536000, "throw": 74.850000},
{"time": 5.544000, "throw": 74.850000},
{"time": 5.552000, "throw": 74.850000},
{"time": 5.560000, "throw": 74.850000},
{"time": 5.568000, "throw": 74.850000},
{"time": 5.576000, "throw": 74.850000},
{"time": 5.584000, "throw": 74.850000},
{"time": 5.592000, "throw": 74.850000},
{"time": 5.600000, "throw": 74.850000},
{"time": 5.608000, "throw": 74.850000},
{"time": 5.616000, "throw": 74.850000},
{"time": 5.624000, "throw": 74.850000},
{"time": 5.632000, "throw": 74.850000},
{"time": 5.640000, "throw": 74.850000},
{"time": 5.648000, "throw": 74.850000},
{"time": 5.656000, "throw": 74.850000},
{"time": 5.664000, "throw": 74.850000},
{"time": 5.672000, "throw": 74.850000},
{"time": 5.680000, "throw": 74.850000},
{"time": 5.688000, "throw": 74.850000},
{"time": 5.696000, "throw": 74.850000},
{"time": 5.704000, "throw": 74.850000},
{"time": 5.712000, "throw": 74.850000},
{"time": 5.720000, "throw": 74.850000},
{"time": 5.728000, "throw": 74.850000},
{"time": 5.736000, "throw": 74.850000},
{"time": 5.744000, "throw": 74.850000},
{"time": 5.752000, "throw": 74.850000},
{"time": 5.760000, "throw": 74.850000},
{"time": 5.768000, "throw": 74.850000},
{"time": 5.776000, "throw": 74.850000},
{"time": 5.784000, "throw": 74.850000},
{"time": 5.792000, "throw": 74.850000},
{"time": 5.800000, "throw": 74.850000},
{"time": 5.808000, "throw": 74.850000},
{"time": 5.816000, "throw": 74.850000},
{"time": 5.824000, "throw": 74.850000},
{"time": 5.832000, "throw": 74.850000},
{"time": 5.840000, "throw": 74.850000},
{"time": 5.848000, "throw": 74.850000},
{"time": 5.856000, "throw": 74.850000},
{"time": 5.864000, "throw": 74.850000},
{"time": 5.872000, "throw": 74.850000},
{"time": 5.880000, "throw": 74.850000},
{"time": 5.888000, "throw": 74.850000},
{"time": 5.896000, "throw": 74.850000},
{"time": 5.904000, "throw": 74.850000},
{"time": 5.912000, "throw": 74.850000},
{"time": 5.920000, "throw": 74.850000},
{"time": 5.928000, "throw": 74.850000},
{"time": 5.936000, "throw": 74.850000},
{"time": 5.944000, "throw": 74.850000},
{"time": 5.952000, "throw": 74.850000},
{"time": 5.960000, "throw": 74.850000},
{"time": 5.968000, "throw": 74.850000},
{"time": 5.976000, "throw": 74.850000},
{"time": 5.984000, "throw": 74.850000},
{"time": 5.992000, "throw": 74.850000}
]