[
{"time": -1.000000, "throw": 1.200000},
{"time": -0.992000, "throw": 1.200000},
{"time": -0.984000, "throw": 1.200000},
{"time": -0.976000, "throw": 1.200000},
{"time": -0.968000, "throw": 1.200000},
{"time": -0.960000, "throw": 1.200000},
{"time": -0.952000, "throw": 1.200000},
{"time": -0.944000, "throw": 1.350000},
{"time": -0.936000, "throw": 1.200000},
{"time": -0.928000, "throw": 1.200000},
{"time": -0.920000, "throw": 1.050000},
{"time": -0.912000, "throw": 1.200000},
{"time": -0.904000, "throw": 1.200000},
{"time": -0.896000, "throw": 1.200000},
{"time": -0.888000, "throw": 1.200000},
{"time": -0.880000, "throw": 1.200000},
{"time": -0.872000, "throw": 1.200000},
{"time": -0.864000, "throw": 1.200000},
{"time": -0.856000, "throw": 1.200000},
{"time": -0.848000, "throw": 1.200000},
{"time": -0.840000, "throw": 1.200000},
{"time": -0.832000, "throw": 1.200000},
{"time": -0.824000, "throw": 1.200000},
{"time": -0.816000, "throw": 1.200000},
{"time": -0.808000, "throw": 1.200000},
{"time": -0.800000, "throw": 1.200000},
{"time": -0.792000, "throw": 1.200000},
{"time": -0.784000, "throw": 1.200000},
{"time": -0.776000, "throw": 1.200000},
{"time": -0.768000, "throw": 1.200000},
{"time": -0.760000, "throw": 1.200000},
{"time": -0.752000, "throw": 1.350000},
{"time": -0.744000, "throw": 1.200000},
{"time": -0.736000, "throw": 1.200000},
{"time": -0.728000, "throw": 1.200000},
{"time": -0.720000, "throw": 1.200000},
{"time": -0.712000, "throw": 1.200000},
{"time": -0.704000, "throw": 1.200000},
{"time": -0.696000, "throw": 1.350000},
{"time": -0.688000, "throw": 1.200000},
{"time": -0.680000, "throw": 1.200000},
{"time": -0.672000, "throw": 1.200000},
{"time": -0.664000, "throw": 1.200000},
{"time": -0.656000, "throw": 1.200000},
{"time": -0.648000, "throw": 1.200000},
{"time": -0.640000, "throw": 1.200000},
{"time": -0.632000, "throw": 1.200000},
{"time": -0.624000, "throw": 1.200000},
{"time": -0.616000, "throw": 1.200000},
{"time": -0.608000, "throw": 1.050000},
{"time": -0.600000, "throw": 1.200000},
{"time": -0.592000, "throw": 1.200000},
{"time": -0.584000, "throw": 1.200000},
{"time": -0.576000, "throw": 1.200000},
{"time": -0.568000, "throw": 1.200000},
{"time": -0.560000, "throw": 1.200000},
{"time": -0.552000, "throw": 1.200000},
{"time": -0.544000, "throw": 1.200000},
{"time": -0.536000, "throw": 1.200000},
{"time": -0.528000, "throw": 1.200000},
{"time": -0.520000, "throw": 1.200000},
{"time": -0.512000, "throw": 1.200000},
{"time": -0.504000, "throw": 1.350000},
{"time": -0.496000, "throw": 1.200000},
{"time": -0.488000, "throw": 1.200000},
{"time": -0.480000, "throw": 1.200000},
{"time": -0.472000, "throw": 1.200000},
{"time": -0.464000, "throw": 1.200000},
{"time": -0.456000, "throw": 1.200000},
{"time": -0.448000, "throw": 1.200000},
{"time": -0.440000, "throw": 1.200000},
{"time": -0.432000, "throw": 1.200000},
{"time": -0.424000, "throw": 1.200000},
{"time": -0.416000, "throw": 1.200000},
{"time": -0.408000, "throw": 1.200000},
{"time": -0.400000, "throw": 1.350000},
{"time": -0.392000, "throw": 1.200000},
{"time": -0.384000, "throw": 1.200000},
{"time": -0.376000, "throw": 1.200000},
{"time": -0.368000, "throw": 1.200000},
{"time": -0.360000, "throw": 0.900000},
{"time": -0.352000, "throw": 1.200000},
{"time": -0.344000, "throw": 1.200000},
{"time": -0.336000, "throw": 1.200000},
{"time": -0.328000, "throw": 1.200000},
{"time": -0.320000, "throw": 1.350000},
{"time": -0.312000, "throw": 1.200000},
{"time": -0.304000, "throw": 1.200000},
{"time": -0.296000, "throw": 1.200000},
{"time": -0.288000, "throw": 1.350000},
{"time": -0.280000, "throw": 1.200000},
{"time": -0.272000, "throw": 1.200000},
{"time": -0.264000, "throw": 1.200000},
{"time": -0.256000, "throw": 1.200000},
{"time": -0.248000, "throw": 1.200000},
{"time": -0.240000, "throw": 1.200000},
{"time": -0.232000, "throw": 1.200000},
{"time": -0.224000, "throw": 1.200000},
{"time": -0.216000, "throw": 1.200000},
{"time": -0.208000, "throw": 1.200000},
{"time": -0.200000, "throw": 1.350000},
{"time": -0.192000, "throw": 1.200000},
{"time": -0.184000, "throw": 1.200000},
{"time": -0.176000, "throw": 1.200000},
{"time": -0.168000, "throw": 1.200000},
{"time": -0.160000, "throw": 1.200000},
{"time": -0.152000, "throw": 1.200000},
{"time": -0.144000, "throw": 1.200000},
{"time": -0.136000, "throw": 1.200000},
{"time": -0.128000, "throw": 1.200000},
{"time": -0.120000, "throw": 1.200000},
{"time": -0.112000, "throw": 1.200000},
{"time": -0.104000, "throw": 1.200000},
{"time": -0.096000, "throw": 1.350000},
{"time": -0.088000, "throw": 1.200000},
{"time": -0.080000, "throw": 1.200000},
{"time": -0.072000, "throw": 1.200000},
{"time": -0.064000, "throw": 1.200000},
{"time": -0.056000, "throw": 1.200000},
{"time": -0.048000, "throw": 1.200000},
{"time": -0.040000, "throw": 1.200000},
{"time": -0.032000, "throw": 1.200000},
{"time": -0.024000, "throw": 1.200000},
{"time": -0.016000, "throw": 1.200000},
{"time": -0.008000, "throw": 1.200000},
{"time": 0.000000, "throw": 1.200000},
{"time": 0.008000, "throw": 1.350000},
{"time": 0.016000, "throw": 1.200000},
{"time": 0.024000, "throw": 1.200000},
{"time": 0.032000, "throw": 1.200000},
{"time": 0.040000, "throw": 1.200000},
{"time": 0.048000, "throw": 1.200000},
{"time": 0.056000, "throw": 1.350000},
{"time": 0.064000, "throw": 1.200000},
{"time": 0.072000, "throw": 1.200000},
{"time": 0.080000, "throw": 1.200000},
{"time": 0.088000, "throw": 1.200000},
{"time": 0.096000, "throw": 1.200000},
{"time": 0.104000, "throw": 1.200000},
{"time": 0.112000, "throw": 1.200000},
{"time": 0.120000, "throw": 1.200000},
{"time": 0.128000, "throw": 1.200000},
{"time": 0.136000, "throw": 1.200000},
{"time": 0.144000, "throw": 1.200000},
{"time": 0.152000, "throw": 1.200000},
{"time": 0.160000, "throw": 0.600000},
{"time": 0.168000, "throw": 0.750000},
{"time": 0.176000, "throw": 0.750000},
{"time": 0.184000, "throw": 0.750000},
{"time": 0.192000, "throw": 0.750000},
{"time": 0.200000, "throw": 0.600000},
{"time": 0.208000, "throw": 0.750000},
{"time": 0.216000, "throw": 0.750000},
{"time": 0.224000, "throw": 0.750000},
{"time": 0.232000, "throw": 0.600000},
{"time": 0.240000, "throw": 0.750000},
{"time": 0.248000, "throw": 0.750000},
{"time": 0.256000, "throw": 0.750000},
{"time": 0.264000, "throw": 0.600000},
{"time": 0.272000, "throw": 0.600000},
{"time": 0.280000, "throw": 0.600000},
{"time": 0.288000, "throw": 0.750000},
{"time": 0.296000, "throw": 0.750000},
{"time": 0.304000, "throw": 0.750000},
{"time": 0.312000, "throw": 0.750000},
{"time": 0.320000, "throw": 0.750000},
{"time": 0.328000, "throw": 0.600000},
{"time": 0.336000, "throw": 0.600000},
{"time": 0.344000, "throw": 0.600000},
{"time": 0.352000, "throw": 0.750000},
{"time": 0.360000, "throw": 0.600000},
{"time": 0.368000, "throw": 0.600000},
{"time": 0.376000, "throw": 0.600000},
{"time": 0.384000, "throw": 0.600000},
{"time": 0.392000, "throw": 0.750000},
{"time": 0.400000, "throw": 0.750000},
{"time": 0.408000, "throw": 0.750000},
{"time": 0.416000, "throw": 0.600000},
{"time": 0.424000, "throw": 0.600000},
{"time": 0.432000, "throw": 0.600000},
{"time": 0.440000, "throw": 0.750000},
{"time": 0.448000, "throw": 0.750000},
{"time": 0.456000, "throw": 0.750000},
{"time": 0.464000, "throw": 0.750000},
{"time": 0.472000, "throw": 0.750000},
{"time": 0.480000, "throw": 0.600000},
{"time": 0.488000, "throw": 0.750000},
{"time": 0.496000, "throw": 0.750000},
{"time": 0.504000, "throw": 0.750000},
{"time": 0.512000, "throw": 0.750000},
{"time": 0.520000, "throw": 0.750000},
{"time": 0.528000, "throw": 0.750000},
{"time": 0.536000, "throw": 0.750000},
{"time": 0.544000, "throw": 0.750000},
{"time": 0.552000, "throw": 0.750000},
{"time": 0.560000, "throw": 0.900000},
{"time": 0.568000, "throw": 0.750000},
{"time": 0.576000, "throw": 0.750000},
{"time": 0.584000, "throw": 0.750000},
{"time": 0.592000, "throw": 0.750000},
{"time": 0.600000, "throw": 0.750000},
{"time": 0.608000, "throw": 0.750000},
{"time": 0.616000, "throw": 0.750000},
{"time": 0.624000, "throw": 0.750000},
{"time": 0.632000, "throw": 0.600000},
{"time": 0.640000, "throw": 0.750000},
{"time": 0.648000, "throw": 0.750000},
{"time": 0.656000, "throw": 0.750000},
{"time": 0.664000, "throw": 0.750000},
{"time": 0.672000, "throw": 0.750000},
{"time": 0.680000, "throw": 0.750000},
{"time": 0.688000, "throw": 0.750000},
{"time": 0.696000, "throw": 0.600000},
{"time": 0.704000, "throw": 0.750000},
{"time": 0.712000, "throw": 0.750000},
{"time": 0.720000, "throw": 0.600000},
{"time": 0.728000, "throw": 0.750000},
{"time": 0.736000, "throw": 0.750000},
{"time": 0.744000, "throw": 0.750000},
{"time": 0.752000, "throw": 0.600000},
{"time": 0.760000, "throw": 0.750000},
{"time": 0.768000, "throw": 0.750000},
{"time": 0.776000, "throw": 0.600000},
{"time": 0.784000, "throw": 0.750000},
{"time": 0.792000, "throw": 0.600000},
{"time": 0.800000, "throw": 0.750000},
{"time": 0.808000, "throw": 0.750000},
{"time": 0.816000, "throw": 0.750000},
{"time": 0.824000, "throw": 0.750000},
{"time": 0.832000, "throw": 0.750000},
{"time": 0.840000, "throw": 0.750000},
{"time": 0.848000, "throw": 0.750000},
{"time": 0.856000, "throw": 0.750000},
{"time": 0.864000, "throw": 0.750000},
{"time": 0.872000, "throw": 0.750000},
{"time": 0.880000, "throw": 0.750000},
{"time": 0.888000, "throw": 0.750000},
{"time": 0.896000, "throw": 0.750000},
{"time": 0.904000, "throw": 0.750000},
{"time": 0.912000, "throw": 0.750000},
{"time": 0.920000, "throw": 0.750000},
{"time": 0.928000, "throw": 0.750000},
{"time": 0.936000, "throw": 0.750000},
{"time": 0.944000, "throw": 0.600000},
{"time": 0.952000, "throw": 0.750000},
{"time": 0.960000, "throw": 0.750000},
{"time": 0.968000, "throw": 0.750000},
{"time": 0.976000, "throw": 0.750000},
{"time": 0.984000, "throw": 0.600000},
{"time": 0.992000, "throw": 0.750000},
{"time": 1.000000, "throw": 0.750000},
{"time": 1.008000, "throw": 0.750000},
{"time": 1.016000, "throw": 0.750000},
{"time": 1.024000, "throw": 0.750000},
{"time": 1.032000, "throw": 0.750000},
{"time": 1.040000, "throw": 0.750000},
{"time": 1.048000, "throw": 0.750000},
{"time": 1.056000, "throw": 0.750000},
{"time": 1.064000, "throw": 0.750000},
{"time": 1.072000, "throw": 0.750000},
{"time": 1.080000, "throw": 0.750000},
{"time": 1.088000, "throw": 0.750000},
{"time": 1.096000, "throw": 0.750000},
{"time": 1.104000, "throw": 0.750000},
{"time": 1.112000, "throw": 0.750000},
{"time": 1.120000, "throw": 0.750000},
{"time": 1.128000, "throw": 0.600000},
{"time": 1.136000, "throw": 0.750000},
{"time": 1.144000, "throw": 0.750000},
{"time": 1.152000, "throw": 0.750000},
{"time": 1.160000, "throw": 0.750000},
{"time": 1.168000, "throw": 0.750000},
{"time": 1.176000, "throw": 0.750000},
{"time": 1.184000, "throw": 0.750000},
{"time": 1.192000, "throw": 0.750000},
{"time": 1.200000, "throw": 0.750000},
{"time": 1.208000, "throw": 0.600000},
{"time": 1.216000, "throw": 0.750000},
{"time": 1.224000, "throw": 0.750000},
{"time": 1.232000, "throw": 0.750000},
{"time": 1.240000, "throw": 0.750000},
{"time": 1.248000, "throw": 0.900000},
{"time": 1.256000, "throw": 0.750000},
{"time": 1.264000, "throw": 0.750000},
{"time": 1.272000, "throw": 0.750000},
{"time": 1.280000, "throw": 0.750000},
{"time": 1.288000, "throw": 0.750000},
{"time": 1.296000, "throw": 0.750000},
{"time": 1.304000, "throw": 0.900000},
{"time": 1.312000, "throw": 0.900000},
{"time": 1.320000, "throw": 0.750000},
{"time": 1.328000, "throw": 0.600000},
{"time": 1.336000, "throw": 0.750000},
{"time": 1.344000, "throw": 0.600000},
{"time": 1.352000, "throw": 0.750000},
{"time": 1.360000, "throw": 0.750000},
{"time": 1.368000, "throw": 0.750000},
{"time": 1.376000, "throw": 0.750000},
{"time": 1.384000, "throw": 0.750000},
{"time": 1.392000, "throw": 0.750000},
{"time": 1.400000, "throw": 0.750000},
{"time": 1.408000, "throw": 0.750000},
{"time": 1.416000, "throw": 0.750000},
{"time": 1.424000, "throw": 0.750000},
{"time": 1.432000, "throw": 0.600000},
{"time": 1.440000, "throw": 0.750000},
{"time": 1.448000, "throw": 0.750000},
{"time": 1.456000, "throw": 0.750000},
{"time": 1.464000, "throw": 0.750000},
{"time": 1.472000, "throw": 0.750000},
{"time": 1.480000, "throw": 0.600000},
{"time": 1.488000, "throw": 0.750000},
{"time": 1.496000, "throw": 0.750000},
{"time": 1.504000, "throw": 0.750000},
{"time": 1.512000, "throw": 0.750000},
{"time": 1.520000, "throw": 0.750000},
{"time": 1.528000, "throw": 0.750000},
{"time": 1.536000, "throw": 0.750000},
{"time": 1.544000, "throw": 0.600000},
{"time": 1.552000, "throw": 0.750000},
{"time": 1.560000, "throw": 0.750000},
{"time": 1.568000, "throw": 0.750000},
{"time": 1.576000, "throw": 0.750000},
{"time": 1.584000, "throw": 0.750000},
{"time": 1.592000, "throw": 0.750000},
{"time": 1.600000, "throw": 0.750000},
{"time": 1.608000, "throw": 0.900000},
{"time": 1.616000, "throw": 0.750000},
{"time": 1.624000, "throw": 0.750000},
{"time": 1.632000, "throw": 0.750000},
{"time": 1.640000, "throw": 0.750000},
{"time": 1.648000, "throw": 0.750000},
{"time": 1.656000, "throw": 0.750000},
{"time": 1.664000, "throw": 0.750000},
{"time": 1.672000, "throw": 0.750000},
{"time": 1.680000, "throw": 0.750000},
{"time": 1.688000, "throw": 0.600000},
{"time": 1.696000, "throw": 0.750000},
{"time": 1.704000, "throw": 0.750000},
{"time": 1.712000, "throw": 0.750000},
{"time": 1.720000, "throw": 0.750000},
{"time": 1.728000, "throw": 0.750000},
{"time": 1.736000, "throw": 0.750000},
{"time": 1.744000, "throw": 0.750000},
{"time": 1.752000, "throw": 0.750000},
{"time": 1.760000, "throw": 0.750000},
{"time": 1.768000, "throw": 0.900000},
{"time": 1.776000, "throw": 0.600000},
{"time": 1.784000, "throw": 0.750000},
{"time": 1.792000, "throw": 0.750000},
{"time": 1.800000, "throw": 0.750000},
{"time": 1.808000, "throw": 0.750000},
{"time": 1.816000, "throw": 0.750000},
{"time": 1.824000, "throw": 0.750000},
{"time": 1.832000, "throw": 0.750000},
{"time": 1.840000, "throw": 0.750000},
{"time": 1.848000, "throw": 0.750000},
{"time": 1.856000, "throw": 0.750000},
{"time": 1.864000, "throw": 0.750000},
{"time": 1.872000, "throw": 0.750000},
{"time": 1.880000, "throw": 0.750000},
{"time": 1.888000, "throw": 0.600000},
{"time": 1.896000, "throw": 0.750000},
{"time": 1.904000, "throw": 0.750000},
{"time": 1.912000, "throw": 0.900000},
{"time": 1.920000, "throw": 0.750000},
{"time": 1.928000, "throw": 0.750000},
{"time": 1.936000, "throw": 0.750000},
{"time": 1.944000, "throw": 0.750000},
{"time": 1.952000, "throw": 0.750000},
{"time": 1.960000, "throw": 0.750000},
{"time": 1.968000, "throw": 0.750000},
{"time": 1.976000, "throw": 0.750000},
{"time": 1.984000, "throw": 0.750000},
{"time": 1.992000, "throw": 0.600000},
{"time": 2.000000, "throw": 0.750000},
{"time": 2.008000, "throw": 0.750000},
{"time": 2.016000, "throw": 0.750000},
{"time": 2.024000, "throw": 0.750000},
{"time": 2.032000, "throw": 0.750000},
{"time": 2.040000, "throw": 0.750000},
{"time": 2.048000, "throw": 0.600000},
{"time": 2.056000, "throw": 0.750000},
{"time": 2.064000, "throw": 0.750000},
{"time": 2.072000, "throw": 0.600000},
{"time": 2.080000, "throw": 0.750000},
{"time": 2.088000, "throw": 0.750000},
{"time": 2.096000, "throw": 0.750000},
{"time": 2.104000, "throw": 0.750000},
{"time": 2.112000, "throw": 0.750000},
{"time": 2.120000, "throw": 0.750000},
{"time": 2.128000, "throw": 0.750000},
{"time": 2.136000, "throw": 0.750000},
{"time": 2.144000, "throw": 0.750000},
{"time": 2.152000, "throw": 0.750000},
{"time": 2.160000, "throw": 0.750000},
{"time": 2.168000, "throw": 0.600000},
{"time": 2.176000, "throw": 0.750000},
{"time": 2.184000, "throw": 0.750000},
{"time": 2.192000, "throw": 0.600000},
{"time": 2.200000, "throw": 0.750000},
{"time": 2.208000, "throw": 0.750000},
{"time": 2.216000, "throw": 0.750000},
{"time": 2.224000, "throw": 0.750000},
{"time": 2.232000, "throw": 0.750000},
{"time": 2.240000, "throw": 0.750000},
{"time": 2.248000, "throw": 0.750000},
{"time": 2.256000, "throw": 0.750000},
{"time": 2.264000, "throw": 0.750000},
{"time": 2.272000, "throw": 0.600000},
{"time": 2.280000, "throw": 0.750000},
{"time": 2.288000, "throw": 0.750000},
{"time": 2.296000, "throw": 0.750000},
{"time": 2.304000, "throw": 0.600000},
{"time": 2.312000, "throw": 0.750000},
{"time": 2.320000, "throw": 0.750000},
{"time": 2.328000, "throw": 0.750000},
{"time": 2.336000, "throw": 0.750000},
{"time": 2.344000, "throw": 0.750000},
{"time": 2.352000, "throw": 0.750000},
{"time": 2.360000, "throw": 0.750000},
{"time": 2.368000, "throw": 0.600000},
{"time": 2.376000, "throw": 0.750000},
{"time": 2.384000, "throw": 0.750000},
{"time": 2.392000, "throw": 0.750000},
{"time": 2.400000, "throw": 0.600000},
{"time": 2.408000, "throw": 0.750000},
{"time": 2.416000, "throw": 0.750000},
{"time": 2.424000, "throw": 0.600000},
{"time": 2.432000, "throw": 0.750000},
{"time": 2.440000, "throw": 0.750000},
{"time": 2.448000, "throw": 0.600000},
{"time": 2.456000, "throw": 0.750000},
{"time": 2.464000, "throw": 0.750000},
{"time": 2.472000, "throw": 0.750000},
{"time": 2.480000, "throw": 0.750000},
{"time": 2.488000, "throw": 0.750000},
{"time": 2.496000, "throw": 0.750000},
{"time": 2.504000, "throw": 0.750000},
{"time": 2.512000, "throw": 0.750000},
{"time": 2.520000, "throw": 0.600000},
{"time": 2.528000, "throw": 0.750000},
{"time": 2.536000, "throw": 0.750000},
{"time": 2.544000, "throw": 0.600000},
{"time": 2.552000, "throw": 0.750000},
{"time": 2.560000, "throw": 0.600000},
{"time": 2.568000, "throw": 0.750000},
{"time": 2.576000, "throw": 0.600000},
{"time": 2.584000, "throw": 0.600000},
{"time": 2.592000, "throw": 0.600000},
{"time": 2.600000, "throw": 0.750000},
{"time": 2.608000, "throw": 0.750000},
{"time": 2.616000, "throw": 0.600000},
{"time": 2.624000, "throw": 0.600000},
{"time": 2.632000, "throw": 0.750000},
{"time": 2.640000, "throw": 0.600000},
{"time": 2.648000, "throw": 0.750000},
{"time": 2.656000, "throw": 0.600000},
{"time": 2.664000, "throw": 0.750000},
{"time": 2.672000, "throw": 0.750000},
{"time": 2.680000, "throw": 0.600000},
{"time": 2.688000, "throw": 0.750000},
{"time": 2.696000, "throw": 0.600000},
{"time": 2.704000, "throw": 0.750000},
{"time": 2.712000, "throw": 0.750000},
{"time": 2.720000, "throw": 0.600000},
{"time": 2.728000, "throw": 0.750000},
{"time": 2.736000, "throw": 0.750000},
{"time": 2.744000, "throw": 0.600000},
{"time": 2.752000, "throw": 0.750000},
{"time": 2.760000, "throw": 0.750000},
{"time": 2.768000, "throw": 0.750000},
{"time": 2.776000, "throw": 0.750000},
{"time": 2.784000, "throw": 0.750000},
{"time": 2.792000, "throw": 0.750000},
{"time": 2.800000, "throw": 0.750000},
{"time": 2.808000, "throw": 0.750000},
{"time": 2.816000, "throw": 0.600000},
{"time": 2.824000, "throw": 0.750000},
{"time": 2.832000, "throw": 0.750000},
{"time": 2.840000, "throw": 0.750000},
{"time": 2.848000, "throw": 0.750000},
{"time": 2.856000, "throw": 0.750000},
{"time": 2.864000, "throw": 0.750000},
{"time": 2.872000, "throw": 0.750000},
{"time": 2.880000, "throw": 0.750000},
{"time": 2.888000, "throw": 0.750000},
{"time": 2.896000, "throw": 0.750000},
{"time": 2.904000, "throw": 0.750000},
{"time": 2.912000, "throw": 0.600000},
{"time": 2.920000, "throw": 0.750000},
{"time": 2.928000, "throw": 0.750000},
{"time": 2.936000, "throw": 0.600000},
{"time": 2.944000, "throw": 0.750000},
{"time": 2.952000, "throw": 0.750000},
{"time": 2.960000, "throw": 0.750000},
{"time": 2.968000, "throw": 0.750000},
{"time": 2.976000, "throw": 0.600000},
{"time": 2.984000, "throw": 0.750000},
{"time": 2.992000, "throw": 0.750000},
{"time": 3.000000, "throw": 0.750000}
]